version="2.0"
tags={
	"Interface"
	"Overhaul"
	"Total Conversions"
	"Unit Graphics"
	"Unit Types"
	"Portraits"
	"Characters"
}
name="Bronze Age Reborn"
supported_version="2.*"
remote_file_id="2448788091"