﻿country_decisions = {

	# Form Attike
	form_one_attike = { 
		
		potential = { 
			num_of_cities >= 1 
			NOT = {
				tag = 1AK
			}
			NOR = { 
				is_tier_1_formable_trigger = yes
				is_tier_2_formable_trigger = yes
				is_endgame_tag_trigger = yes 
			}
			capital_scope = {
				OR = {
					is_in_area = athens_area
					is_in_area = lavrion_area
					is_in_area = oropos_area
					province_id = 324 #Dafni
					province_id = 323
					province_id = 246 #Megara
					province_id = 243
				}
			}
			# primary_culture = helladic not needed imho
		}
		
		highlight = { 
			scope:province = { #eponymous province territories or other important territories, one per province
				OR = {
					province_id = 351
					province_id = 254
					province_id = 257
					province_id = 266
					province_id = 263
					province_id = 271
				}
			}
		}
		
		allow = { 
			custom_tooltip = {
				text = formable_new_nation_exists
				NOT = {
					any_country = {
						tag = 1AK
					}
				}
			}
			can_form_nation_trigger = yes 
			owns_or_subject_owns = 351
			owns_or_subject_owns = 254
			owns_or_subject_owns = 257
			owns_or_subject_owns = 266
			owns_or_subject_owns = 263
			owns_or_subject_owns = 271
		}
		
		ai_allow = { #Doesn't have to be owned directly, vassal owning it is fine
			owns_or_subject_owns = 351
			owns_or_subject_owns = 254
			owns_or_subject_owns = 257
			owns_or_subject_owns = 266
			owns_or_subject_owns = 263
			owns_or_subject_owns = 271
		}
		
		effect = {
			change_country_name = "ONE_ATTIKE_NAME"
			add_2_free_province_investments = yes
			capital_scope = {
				if = {
					limit = {
						root = {
							is_tribal = yes
						}
					}
					capital_formable_tribal_effect = yes
				}
				else = {
					capital_formable_small_effect = yes
				}
				formable_capital_modifier_normal_effect = yes
			}
			hidden_effect = {
				change_country_adjective = "ONE_ATTIKE_ADJECTIVE"
				change_country_tag = 1AK
				change_country_color = macedonian_blue
				#change_country_flag = 
				every_province = {
					limit = {
						OR = {
							is_in_area = athens_area
							is_in_area = lavrion_area
							is_in_area = oropos_area
						}
						NOT = { owner = ROOT }
					}
					add_claim = ROOT 
				}
			}
		}

		ai_will_do = {
			base = 1
		}
	}
} 