﻿martial_1 = {
	technology = military_tech
	color = hsv { 0 0.8 0.5 }

#### MILITARY CULTURE TREE ####

	# Level 0
	military_tech_investment_inv_1 = { 
		modifier = { price_state_investment_military_cost_modifier = -0.1 }
		on_activate = {
			add_1_free_province_investments = yes
		}
	}

	# Level 1
	global_start_experience_inv_1 = { 
		modifier = { global_start_experience = 5 }
		requires = { military_tech_investment_inv_1 }
	}

	global_start_experience_inv_2 = { 
		modifier = { global_start_experience = 2.5 }
		requires = { military_tech_investment_inv_1 }
		ai_will_do = {
			modifier = {
				add = 25
			}
			modifier = {
				add = 25
				is_antagonist = yes
			}
		}
	}

	global_supply_limit_modifier_inv_3 = { 
		modifier = { global_supply_limit_modifier = 0.1 }
		requires = { military_tech_investment_inv_1 }
	}

	# Level 2
	heavy_infantry_discipline_inv = {
		modifier = { heavy_infantry_discipline = 0.05 }
		requires = { global_start_experience_inv_3 }
	}

	global_start_experience_inv_3 = { 
		modifier = { global_start_experience = 2.5 }
		requires = { global_start_experience_inv_1 }
	}

	experience_decay_inv_1 = { 
		modifier = { 
			discipline = 0.05
		}
		requires = { global_start_experience_inv_2 }
		ai_will_do = {
			modifier = {
				add = 25
			}
			modifier = {
				add = 25
				is_antagonist = yes
			}
		}
	}

	fort_maintenance_cost_inv = {
		modifier = { fort_maintenance_cost = -0.1 }
		requires = { global_supply_limit_modifier_inv_2 }
	}

	global_supply_limit_modifier_inv_1 = { 
		modifier = { global_supply_limit_modifier = 0.1 }
		requires = { general_loyalty_inv }
	}

	general_loyalty_inv = {
		modifier = { general_loyalty = 5 }
		requires = { global_supply_limit_modifier_inv_3 }
	}

	global_supply_limit_modifier_inv_2 = { 
		modifier = { global_supply_limit_modifier = 0.05 }
		requires = { global_supply_limit_modifier_inv_3 }
	}

	#Level 3
	discipline_inv_4 = { 
		requires = { discipline_inv_3 }
		modifier = { 
			discipline = 0.05
			loyalty_gain_chance_modifier = -0.05
		}
		on_activate = {
			custom_tooltip = "exp_from_sieging_legions"
		}
		keystone = yes
	}

	army_maintenance_cost_inv_2 = { 
		modifier = { army_maintenance_cost = -0.05  }
		requires = { global_cohort_recruit_speed_inv }
		ai_will_do = {
			modifier = {
				add = 25
			}
			modifier = {
				add = 25
				is_antagonist = yes
			}
		}
	}


	cohort_reinforcement_speed_inv = {
		requires = { experience_decay_inv_1 }
		modifier = { cohort_reinforcement_speed = 0.05 }
		ai_will_do = {
			modifier = {
				add = 25
			}
			modifier = {
				add = 25
				is_antagonist = yes
			}
		}
	}

	global_cohort_recruit_speed_inv = { 
		modifier = { 
			discipline = 0.05 
			experience_decay = -0.005
		}
		keystone = yes
		requires = { experience_decay_inv_1 }
		on_activate = {
			if = {
				limit = {
					is_republic = yes
				}
				custom_tooltip = "allow_capital_legion_law"
			}
			if = {
				limit = {
					is_ai = yes
					is_republic = yes
				}
				pay_price = enact_law
				if = {
					limit = { tag = ROM }
					change_law = punic_reforms
				}
				else = {
					change_law = republican_recruitment_2
				}
			}
		}
		ai_will_do = {
			modifier = {
				factor = 100
			}
		}
	}
	
	gw_effect_martial_education_inv = {
		on_activate = { custom_tooltip = "allow_gw_effect_martial_education" }
		requires = { global_cohort_recruit_speed_inv }
		allow = { has_dlc = "Heirs of Alexander" }
		icon_override = gw_icon
	}
	
	discipline_inv_2 = { 
		modifier = { discipline = 0.025 }
		requires = { cohort_reinforcement_speed_inv }
	}	

	army_movement_speed_inv = { 
		modifier = { 
			army_movement_speed = 0.05 
			
		}
		on_activate = {
			custom_tooltip = "enables_forced_march"
		}
		keystone = yes
		requires_or = { military_tech_investment_inv_2 global_supply_limit_modifier_inv_4 }
	}

	military_tech_investment_inv_2 = { 
		modifier = { army_movement_speed = 0.05 }
		requires = { global_supply_limit_modifier_inv_1 }
	}

	global_supply_limit_modifier_inv_4 = { 
		requires = { fort_maintenance_cost_inv }
		modifier = { global_supply_limit_modifier = 0.05 }
	}

	# Level 4
	discipline_inv_3 = { 
		modifier = { 
			land_morale_recovery = 0.04
		}
		requires = { global_start_experience_inv_4 }
	}

	global_start_experience_inv_4 = { 
		requires = { army_maintenance_cost_inv_2 }
		modifier = { 
			global_start_experience = 5
			heavy_infantry_discipline = 0.05
		}
		on_activate = {
			custom_tooltip = "create_high_martial_rising_star"
			hidden_effect = {
				create_character = {
					add_martial = 8
					add_trait = conqueror
				}
			}
		}
		keystone = yes
		ai_will_do = {
			modifier = {
				add = 25
			}
			modifier = {
				add = 25
				is_antagonist = yes
			}
		}
	}	


	global_start_experience_inv_5 = { 
		requires = { discipline_inv_2 }
		modifier = { global_start_experience = 2.5 }
	}


	discipline_inv_5 = { 
		requires = { global_start_experience_inv_5 experience_decay_inv_2 }
		modifier = { 
			discipline = 0.05 
		}
		on_activate = {
			custom_tooltip = "allow_all_legion_law"
			if = {
				limit = {
					is_ai = yes
					is_monarchy = yes
				}
				pay_price = enact_law
				change_law = standing_army_law
			}
			else_if = {
				limit = {
					is_ai = yes
					is_republic = yes
				}
				pay_price = enact_law
				change_law = republican_recruitment_4
			}
		}
		keystone = yes
		ai_will_do = {
			modifier = {
				add = 100
				is_tribal = no
			}
		}
	}	


	hostile_attrition_inv = { 
		modifier = { hostile_attrition = 1  }
		requires = { retreat_delay_inv }
	}


	global_supply_limit_modifier_inv_5 = { 
		requires = { army_movement_speed_inv }
		modifier = { global_supply_limit_modifier = 0.1 }
	}


	army_maintenance_cost_inv_1 = { 
		modifier = { army_maintenance_cost = -0.05  }
		requires = { global_supply_limit_modifier_inv_4 }
	}

	# Level 5
	experience_decay_inv_2 = { 
		requires = { global_start_experience_inv_4 }
		modifier = { experience_decay = -0.005 }
		ai_will_do = {
			modifier = {
				add = 25
			}
			modifier = {
				add = 25
				is_antagonist = yes
			}
		}
	}

	retreat_delay_inv = {
		requires = { army_movement_speed_inv }
		modifier = { retreat_delay = -2 }
	}

	land_unit_attrition_inv = { 
		requires_or = { global_supply_limit_modifier_inv_5 army_maintenance_cost_inv_1 }
		keystone = yes
		modifier = { 
			land_unit_attrition = -0.1   
			global_supply_limit_modifier = 0.15
		}
		on_activate = {
			random_character = {
				limit = {
					has_doctor_office_trigger = yes
				}
				add_finesse = 3
			}
		}
	}
}
#### MILITARY INVENTIONS TREE ####
military_inventions = {
	technology = military_tech
	color = hsv { 0 0.6 0.9 }
	# Level 0
	buy_military_tradition_inv = { 
		modifier = { army_weight_modifier = -0.1  }
	}

	# Level 1
	discipline_inv_1 = { 
		modifier = { discipline = 0.025 }
		requires = { buy_military_tradition_inv }
	}

	global_defensive_inv_1 = {
		modifier = { global_defensive = 0.05 }
		requires = { buy_military_tradition_inv }
	}

	siege_engineers_inv_1 = { 
		modifier = { siege_engineers = 1  }
		requires = { buy_military_tradition_inv }
		on_activate = {
			custom_tooltip = "allow_gw_effect_siege_doctrine"
		}
	}

	# Level 2
	heavy_cavalry_discipline_inv = {
		modifier = { heavy_cavalry_discipline = 0.1 }
		requires = { discipline_inv_1 }
	}

	global_defensive_inv_2 = { 
		modifier = { global_defensive = 0.05 }
		requires = { global_defensive_inv_1 }
		on_activate = {
			if = {
				limit = {
					has_dlc = "Heirs of Alexander"
				}
				custom_tooltip = "allow_gw_effect_defense_doctrine"
			}
		}
	}	

	global_defensive_inv_4 = { 
		requires_or = { global_defensive_inv_1 siege_engineers_inv_1 }
		modifier = { 
			global_defensive = 0.1 
			garrison_size = 0.1
			garrison_growth = 0.1
		}
		keystone = yes
	}

	assault_ability_inv = { 
		modifier = { assault_ability = 0.05 }
		requires = { siege_engineers_inv_1 }
	}

	# Level 3
	siege_engineers_inv_3 = { 
		modifier = { siege_ability = 0.025  }
		requires = { assault_ability_inv }
	}	

	heavy_infantry_cost_inv = {
		modifier = { heavy_infantry_cost = -0.1 }
		keystone = yes
		requires = { heavy_cavalry_discipline_inv }
		on_activate = { custom_tooltip = "enables_foundry_building_tt" }
	}	

	global_defensive_inv_3 = { 
		modifier = { global_defensive = 0.05 }
		keystone = yes
		requires = { global_defensive_inv_2 }
		on_activate = {
			custom_tooltip = "enables_rampart_building_tt"
		}
	}	

	siege_speed_inv_3 = { 
		modifier = { siege_ability = 0.025 }
		requires = { global_defensive_inv_4 }
	}

	siege_speed_inv_2 = { 
		modifier = { siege_ability = 0.025 }
		requires = { assault_ability_inv }
	}		

	# Level 4
	siege_speed_inv_4 = { 
		modifier = { siege_ability = 0.025 }
		requires = { global_defensive_inv_3 }
		requires_or = { heavy_infantry_cost_inv siege_speed_inv_3 }
	}

	siege_engineers_inv_5 = { 
		requires = { siege_engineers_inv_3 }
		requires_or = { siege_speed_inv_2 siege_speed_inv_3 }
		modifier = { 
			engineer_cohort_cost = -0.1  
			siege_ability = 0.05
			land_unit_attrition = -0.05
		}
		keystone = yes
	}	

	# Level 5
	siege_speed_inv_5 = { 
		requires = { siege_engineers_inv_5 }
		modifier = { siege_ability = 0.025 }
	}

	global_defensive_inv_5 = { 
		requires = { siege_speed_inv_4 }
		modifier = { 
			global_defensive = 0.20 
		}
		keystone = yes
	}

	siege_engineers_inv_4 = { 
		modifier = { siege_engineers = 1  }
		requires = { siege_engineers_inv_5}
	}	

	# Level 6
	siege_speed_inv_1 = { 
		modifier = { engineer_cohort_maintenance_cost = -0.1 }
		requires = { siege_engineers_inv_4 }
	}

	# Level 7
	siege_engineers_inv_6 = { 
		requires = {   global_defensive_inv_5 }
		requires_or = { siege_speed_inv_1 siege_speed_inv_5  }
		modifier = { 
			siege_engineers = 1
			engineer_cohort_cost = -0.1
			army_movement_speed = -0.05
		}
		keystone = yes
	}	
}

#### MILITARY NAVAL TREE ###
naval_tree = {
	technology = military_tech
	color = hsv { 0 0.6 0.7 }
	# Level 0
	pirate_spawn_chance_inv_1 = { 
		modifier = { naval_range = 0.05 }
		on_activate = {
			random_owned_province = {
				limit = {
					is_coastal = yes
					num_of_port_building < 1
					can_build_building = port_building
				}
				alternative_limit = {
					num_of_port_building > 0
					can_build_building = port_building
				}
				add_building_level = port_building
			}
		}
	}

	# Level 1
	liburnian_invention_2 = {
		modifier = { liburnian_morale = 0.05 }
		requires = { pirate_spawn_chance_inv_1 }
	}	

	katapharct_inv = {
		modifier = { tetrere_defensive = 0.05
					 hexere_defensive = 0.05 }
		requires = { pirate_spawn_chance_inv_1 }
	}	

	# Level 2
	naval_tactic_inv_1 = { 
		modifier = {
			naval_damage_taken = -0.05
		}
		requires = { liburnian_invention_2 }
	}

	naval_weapon_platform_inv_2 = {
		modifier = { tetrere_offensive = 0.05 }
		requires = { katapharct_inv }
	}

	navy_maintenance_cost_inv_1 = {
		modifier = { navy_maintenance_cost = -0.05  }
		requires = { katapharct_inv }
		on_activate = {
			if = {
				limit = {
					any_owned_province = { is_port = yes }
				}
				random_owned_province = {
					limit = {
						is_port = yes
					}
					owner = {
						create_unit = {
							navy = yes
							location = prev.prev
							add_subunit = liburnian
							add_subunit = liburnian
							add_subunit = liburnian
							add_subunit = liburnian
						}
					}
				}
			}
		}
	}

	# Level 3
		liburnian_invention_1 = {
		modifier = { liburnian_offensive = 0.05}
		requires = { naval_tactic_inv_1 }
	}

	naval_rostra_inv_1 = {
		modifier = { liburnian_discipline = 0.05
					 trireme_discipline = 0.05 }
		requires = { liburnian_invention_2 }		
	}	

	trireme_discipline_inv_2 = { 
		modifier = { tetrere_discipline = 0.05 }
		requires = { navy_maintenance_cost_inv_1 }
	}	

	# Level 4
	pirate_spawn_chance_inv_2 = { 
		requires_or = { liburnian_invention_1 naval_rostra_inv_1 }
		modifier = { naval_range = 0.05  }
	}

	trireme_discipline_inv_4 = { 
		requires_or = { naval_rostra_inv_1 naval_weapon_platform_inv_2}
		modifier = { 
			hexere_discipline = 0.05 		 
			tetrere_discipline = 0.05 
			naval_range = 0.1
			naval_damage_taken = -0.05
		}
		keystone = yes
	}

	naval_tactic_inv_3 = {
		modifier = { naval_damage_done = 0.05 }
		requires = { naval_weapon_platform_inv_2 }
	}

	trireme_discipline_inv_1 = { 
		modifier = {
			naval_damage_taken = -0.05
			global_ship_start_experience = 10
			max_mercenary_stacks = 1
		}
		requires = { trireme_discipline_inv_2 }
		keystone = yes
		on_activate = {
			if = {
				limit = { is_monarchy = yes }
				custom_tooltip = allows_maritime_laws
			}
		}
		ai_will_do = {
			modifier = {
				factor = 100
			}
		}
	}			

	# Level 5
	trireme_discipline_inv_3 = { 
		modifier = { trireme_discipline = 0.1 }
		requires = { pirate_spawn_chance_inv_2 }
	}

	naval_weapon_platform_inv_1 = {
		modifier = { trireme_offensive = 0.05 }
		requires = { pirate_spawn_chance_inv_2 }		
	}	

	naval_weapon_platform_inv_3 = {
		modifier = { 
			octere_offensive = 0.25 
			octere_defensive = -0.1
		}
		keystone = yes
		requires_or = { naval_tactic_inv_3 trireme_discipline_inv_1 }	
			
	}	

	double_bow_and_stern_inv_1 = {
		modifier = { tetrere_defensive = 0.05 
					 hexere_defensive = 0.05 }
		requires = { trireme_discipline_inv_1 }
	}	

	# Level 6
	navy_movement_speed_inv = { 
		requires_or = { trireme_discipline_inv_3 naval_weapon_platform_inv_1 }
		modifier = { liburnian_discipline = 0.1 }
	}

	naval_rostra_inv_2 = {
		modifier = { naval_morale_modifier = 0.05 }
		requires = { trireme_discipline_inv_4 }		
	}	

	blockade_efficiency_inv = {
		requires = { double_bow_and_stern_inv_1 }
		modifier = { blockade_efficiency = 0.2 }
	}	

	# Level 7
	naval_tactic_inv_2 = {
		modifier = { 
			liburnian_offensive = 0.05 
		}
		requires = { navy_movement_speed_inv }
	}
	
	siege_engineers_inv_2 = { 
		modifier = { siege_engineers = 1  }
		requires = { navy_movement_speed_inv }
	}

	trireme_discipline_inv_5 = { 
		requires = { naval_rostra_inv_2 }
		modifier = { naval_damage_done = 0.05 }
	}		

	counterbalanced_oars_inv = {
		modifier = { naval_morale_recovery = 0.05 }
		requires = { blockade_efficiency_inv }
	}

	navy_maintenance_cost_inv_2 = { 
		requires = { blockade_efficiency_inv }
		modifier = { naval_damage_taken = -0.05  }
	}		

	# Level 8
	naval_rostra_inv_3 = {
		modifier = { 
			naval_morale_modifier = 0.1 
			naval_damage_done = 0.05
			trireme_offensive = 0.05
		}
		keystone = yes
		requires = { trireme_discipline_inv_5 }
		requires_or = { naval_tactic_inv_2 siege_engineers_inv_2 }		
	}

	naval_unit_attrition_inv = {
		modifier = { 
			naval_unit_attrition = -0.1 
			navy_maintenance_cost = -0.1
		}
		keystone = yes
		requires_or = { counterbalanced_oars_inv navy_maintenance_cost_inv_2 }
	}	

	# Level 9	
	global_ship_recruit_speed_inv = { 
		modifier = { 
			global_ship_recruit_speed = 0.25 
		}
		keystone = yes
		requires_or = { naval_rostra_inv_3 naval_unit_attrition_inv }
		potential = {
			num_of_ports >= 1
		}
		on_activate = {
			random_owned_province = {
				limit = {
					num_of_port_building > 0 
				}
				owner = {
					create_unit = {
						navy = yes
						location = prev.prev
						add_subunit = tetrere
						add_subunit = tetrere
						add_subunit = tetrere
						add_subunit = tetrere
						add_subunit = hexere
						add_subunit = hexere
						add_subunit = hexere
						add_subunit = hexere
					}
				}
			}
		}
	}

	# Level 10
	double_bow_and_stern_inv_2 = {
		modifier = { octere_defensive = 0.05 
					 mega_galley_defensive = 0.05 }
		requires = { global_ship_recruit_speed_inv }					 
	}

	mega_catamaran_inv = {
		modifier = { blockade_efficiency = 0.1 }
		requires = { global_ship_recruit_speed_inv }				
	}	

	# Level 11
	naval_rostra_inv_4 = {
		modifier = { octere_discipline = 0.05
					 mega_galley_discipline = 0.05 }
		requires = { double_bow_and_stern_inv_2 mega_catamaran_inv }		
	}
}