﻿nobles = {
	output_modifier = {
		research_points = 0.4
	}
	
	count_modifier = {
		pop_food_consumption = -0.6
		local_base_trade_routes = 0.15
	}
	levy_tier = advanced

	demotes_to = citizen
	
	conquest_demote_chance = 5 #5% - Nobles will stay a nuisance.
	
	base_happyness = -0.2
	political_weight = 3
	score = yes
	
	# Activity Speeds
	growing_pop = 0.0
	convert = 0.4
	assimilate = 0.4
	promote = 0
	demote = 2
	migrant = 0.4
	ui_tier = 1
	
	color = hsv { 1  0.9  0.78 }
	
	integrated_pop_type_right = yes
	
	modification_display = {
		0 = value_income
	}
}