object={
	name="amb_2D_base_wind_emitter"
	clamp_to_water_level=no
	render_under_water=no
	generated_content=no
	layer="Audio_layer"
	entity="map_ambient_2D_base_wind"
	count=1
	transform="0.000000 0.000000 0.000000 -0.000000 -0.000000 -0.000000 1.000000 1.000000 1.000000 1.000000
"}
object={
	name="amb_3D_desert_emitter"
	clamp_to_water_level=no
	render_under_water=no
	generated_content=no
	layer="Audio_layer"
	entity="map_ambient_3D_desert"
	count=116
	transform="6147.913086 0.000000 2454.820557 -0.000000 -0.000000 -0.000000 1.000000 1.000000 1.000000 1.000000
4872.357422 0.000000 2426.414063 -0.000000 -0.000000 -0.000000 1.000000 1.000000 1.000000 1.000000
5941.991211 0.000000 2535.107422 -0.000000 -0.000000 -0.000000 1.000000 1.000000 1.000000 1.000000
5665.458984 0.000000 2517.145264 -0.000000 -0.000000 -0.000000 1.000000 1.000000 1.000000 1.000000
5171.027344 0.000000 2284.033936 -0.000000 -0.000000 -0.000000 1.000000 1.000000 1.000000 1.000000
5439.014160 0.000000 2254.953613 -0.000000 -0.000000 -0.000000 1.000000 1.000000 1.000000 1.000000
5341.334473 0.000000 2029.544434 -0.000000 -0.000000 -0.000000 1.000000 1.000000 1.000000 1.000000
5737.916504 0.000000 2283.855469 -0.000000 -0.000000 -0.000000 1.000000 1.000000 1.000000 1.000000
6265.794434 0.000000 2664.232178 -0.000000 -0.000000 -0.000000 1.000000 1.000000 1.000000 1.000000
5432.446289 0.000000 2487.997070 -0.000000 -0.000000 -0.000000 1.000000 1.000000 1.000000 1.000000
5668.763184 0.000000 2754.694336 -0.000000 -0.000000 -0.000000 1.000000 1.000000 1.000000 1.000000
4168.680664 0.000000 1377.162720 -0.000000 -0.000000 -0.000000 1.000000 1.000000 1.000000 1.000000
4385.164063 0.000000 1029.077637 -0.000000 -0.000000 -0.000000 1.000000 1.000000 1.000000 1.000000
4198.540039 0.000000 1165.350342 -0.000000 -0.000000 -0.000000 1.000000 1.000000 1.000000 1.000000
4397.312500 0.000000 1306.399170 -0.000000 -0.000000 -0.000000 1.000000 1.000000 1.000000 1.000000
4601.630371 0.000000 926.010376 -0.000000 -0.000000 -0.000000 1.000000 1.000000 1.000000 1.000000
4873.825195 0.000000 864.683960 -0.000000 -0.000000 -0.000000 1.000000 1.000000 1.000000 1.000000
4575.183105 0.000000 1183.629761 -0.000000 -0.000000 -0.000000 1.000000 1.000000 1.000000 1.000000
4952.522461 0.000000 1213.974487 -0.000000 -0.000000 -0.000000 1.000000 1.000000 1.000000 1.000000
5074.595215 0.000000 1030.532227 -0.000000 -0.000000 -0.000000 1.000000 1.000000 1.000000 1.000000
5109.353027 0.000000 1371.689941 -0.000000 -0.000000 -0.000000 1.000000 1.000000 1.000000 1.000000
5305.222656 0.000000 1447.937500 -0.000000 -0.000000 -0.000000 1.000000 1.000000 1.000000 1.000000
4788.295898 0.000000 1346.158447 -0.000000 -0.000000 -0.000000 1.000000 1.000000 1.000000 1.000000
4586.449707 0.000000 1397.551025 -0.000000 -0.000000 -0.000000 1.000000 1.000000 1.000000 1.000000
4383.706055 0.000000 1531.369019 -0.000000 -0.000000 -0.000000 1.000000 1.000000 1.000000 1.000000
3951.114258 0.000000 1339.322754 -0.000000 -0.000000 -0.000000 1.000000 1.000000 1.000000 1.000000
4017.422607 0.000000 1554.081421 -0.000000 -0.000000 -0.000000 1.000000 1.000000 1.000000 1.000000
3846.324707 0.000000 1613.191040 -0.000000 -0.000000 -0.000000 1.000000 1.000000 1.000000 1.000000
3760.739990 0.000000 1793.313354 -0.000000 -0.000000 -0.000000 1.000000 1.000000 1.000000 1.000000
3996.820313 0.000000 1837.930908 -0.000000 -0.000000 -0.000000 1.000000 1.000000 1.000000 1.000000
3828.351318 0.000000 1998.901611 -0.000000 -0.000000 -0.000000 1.000000 1.000000 1.000000 1.000000
3614.395264 0.000000 1948.467407 -0.000000 -0.000000 -0.000000 1.000000 1.000000 1.000000 1.000000
3670.135498 0.000000 2110.224121 -0.000000 -0.000000 -0.000000 1.000000 1.000000 1.000000 1.000000
4334.529297 0.000000 3310.102539 -0.000000 -0.000000 -0.000000 1.000000 1.000000 1.000000 1.000000
4200.384766 0.000000 3150.768066 -0.000000 -0.000000 -0.000000 1.000000 1.000000 1.000000 1.000000
4410.416016 0.000000 3113.589111 -0.000000 -0.000000 -0.000000 1.000000 1.000000 1.000000 1.000000
4896.445801 0.000000 3045.177002 -0.000000 -0.000000 -0.000000 1.000000 1.000000 1.000000 1.000000
5144.416504 0.000000 3156.643555 -0.000000 -0.000000 -0.000000 1.000000 1.000000 1.000000 1.000000
4772.754395 0.000000 3310.802490 -0.000000 -0.000000 -0.000000 1.000000 1.000000 1.000000 1.000000
4760.822266 0.000000 3515.799805 -0.000000 -0.000000 -0.000000 1.000000 1.000000 1.000000 1.000000
4966.988281 0.000000 3510.551758 -0.000000 -0.000000 -0.000000 1.000000 1.000000 1.000000 1.000000
5181.814941 0.000000 3513.166504 -0.000000 -0.000000 -0.000000 1.000000 1.000000 1.000000 1.000000
6024.507813 0.000000 3766.410156 -0.000000 -0.000000 -0.000000 1.000000 1.000000 1.000000 1.000000
6180.588867 0.000000 3922.872314 -0.000000 -0.000000 -0.000000 1.000000 1.000000 1.000000 1.000000
5959.842773 0.000000 3948.671387 -0.000000 -0.000000 -0.000000 1.000000 1.000000 1.000000 1.000000
5798.412109 0.000000 3703.514404 -0.000000 -0.000000 -0.000000 1.000000 1.000000 1.000000 1.000000
5950.198242 0.000000 3575.998779 -0.000000 -0.000000 -0.000000 1.000000 1.000000 1.000000 1.000000
6194.281250 0.000000 3665.818848 -0.000000 -0.000000 -0.000000 1.000000 1.000000 1.000000 1.000000
6388.385742 0.000000 3742.224365 -0.000000 -0.000000 -0.000000 1.000000 1.000000 1.000000 1.000000
6389.954590 0.000000 3944.367432 -0.000000 -0.000000 -0.000000 1.000000 1.000000 1.000000 1.000000
6360.749512 0.000000 3399.358887 -0.000000 -0.000000 -0.000000 1.000000 1.000000 1.000000 1.000000
6463.833008 0.000000 3563.412598 -0.000000 -0.000000 -0.000000 1.000000 1.000000 1.000000 1.000000
6626.050293 0.000000 3464.027832 -0.000000 -0.000000 -0.000000 1.000000 1.000000 1.000000 1.000000
6674.920898 0.000000 3668.562256 -0.000000 -0.000000 -0.000000 1.000000 1.000000 1.000000 1.000000
6791.359863 0.000000 3523.617676 -0.000000 -0.000000 -0.000000 1.000000 1.000000 1.000000 1.000000
6843.929688 0.000000 3766.697266 -0.000000 -0.000000 -0.000000 1.000000 1.000000 1.000000 1.000000
6978.564453 0.000000 3667.712402 -0.000000 -0.000000 -0.000000 1.000000 1.000000 1.000000 1.000000
7072.557617 0.000000 3868.406250 -0.000000 -0.000000 -0.000000 1.000000 1.000000 1.000000 1.000000
7153.151855 0.000000 3815.690430 -0.000000 -0.000000 -0.000000 1.000000 1.000000 1.000000 1.000000
4706.810059 0.000000 2259.642090 -0.000000 -0.000000 -0.000000 1.000000 1.000000 1.000000 1.000000
5092.772949 0.000000 2054.185059 -0.000000 -0.000000 -0.000000 1.000000 1.000000 1.000000 1.000000
4936.031738 0.000000 2007.244751 -0.000000 -0.000000 -0.000000 1.000000 1.000000 1.000000 1.000000
4890.353027 0.000000 1834.443237 -0.000000 -0.000000 -0.000000 1.000000 1.000000 1.000000 1.000000
5008.001953 0.000000 1867.374756 -0.000000 -0.000000 -0.000000 1.000000 1.000000 1.000000 1.000000
5063.458496 0.000000 1952.569092 -0.000000 -0.000000 -0.000000 1.000000 1.000000 1.000000 1.000000
4953.466309 0.000000 1929.964600 -0.000000 -0.000000 -0.000000 1.000000 1.000000 1.000000 1.000000
4870.202148 0.000000 1952.646729 -0.000000 -0.000000 -0.000000 1.000000 1.000000 1.000000 1.000000
4542.731934 0.000000 1690.108887 -0.000000 -0.000000 -0.000000 1.000000 1.000000 1.000000 1.000000
4768.811523 0.000000 1561.059204 -0.000000 -0.000000 -0.000000 1.000000 1.000000 1.000000 1.000000
4971.610840 0.000000 1498.751953 -0.000000 -0.000000 -0.000000 1.000000 1.000000 1.000000 1.000000
5101.300781 0.000000 1573.955566 -0.000000 -0.000000 -0.000000 1.000000 1.000000 1.000000 1.000000
5195.284180 0.000000 1686.889404 -0.000000 -0.000000 -0.000000 1.000000 1.000000 1.000000 1.000000
3707.221191 0.000000 1461.832764 -0.000000 -0.000000 -0.000000 1.000000 1.000000 1.000000 1.000000
3577.587158 0.000000 1583.084839 -0.000000 -0.000000 -0.000000 1.000000 1.000000 1.000000 1.000000
3329.382324 0.000000 1598.730225 -0.000000 -0.000000 -0.000000 1.000000 1.000000 1.000000 1.000000
3405.851563 0.000000 1483.271973 -0.000000 -0.000000 -0.000000 1.000000 1.000000 1.000000 1.000000
3446.812012 0.000000 1411.177612 -0.000000 -0.000000 -0.000000 1.000000 1.000000 1.000000 1.000000
5091.832520 0.000000 859.931030 -0.000000 -0.000000 -0.000000 1.000000 1.000000 1.000000 1.000000
5246.162109 0.000000 1005.385498 -0.000000 -0.000000 -0.000000 1.000000 1.000000 1.000000 1.000000
5396.792969 0.000000 1167.728638 -0.000000 -0.000000 -0.000000 1.000000 1.000000 1.000000 1.000000
5517.997559 0.000000 1341.343994 -0.000000 -0.000000 -0.000000 1.000000 1.000000 1.000000 1.000000
5531.823730 0.000000 1556.798462 -0.000000 -0.000000 -0.000000 1.000000 1.000000 1.000000 1.000000
4017.415527 0.000000 541.469604 -0.000000 -0.000000 -0.000000 1.000000 1.000000 1.000000 1.000000
1314.561157 0.000000 1679.038818 -0.000000 -0.000000 -0.000000 1.000000 1.000000 1.000000 1.000000
1104.671875 0.000000 1717.976074 -0.000000 -0.000000 -0.000000 1.000000 1.000000 1.000000 1.000000
894.585266 0.000000 1686.535278 -0.000000 -0.000000 -0.000000 1.000000 1.000000 1.000000 1.000000
645.744141 0.000000 1645.457520 -0.000000 -0.000000 -0.000000 1.000000 1.000000 1.000000 1.000000
431.481201 0.000000 1587.914917 -0.000000 -0.000000 -0.000000 1.000000 1.000000 1.000000 1.000000
277.194336 0.000000 1420.501709 -0.000000 -0.000000 -0.000000 1.000000 1.000000 1.000000 1.000000
3731.858154 0.000000 794.192505 -0.000000 -0.000000 -0.000000 1.000000 1.000000 1.000000 1.000000
3533.620361 0.000000 395.522339 -0.000000 -0.000000 -0.000000 1.000000 1.000000 1.000000 1.000000
3545.407715 0.000000 672.004272 -0.000000 -0.000000 -0.000000 1.000000 1.000000 1.000000 1.000000
3373.578369 0.000000 603.535950 -0.000000 -0.000000 -0.000000 1.000000 1.000000 1.000000 1.000000
2687.275391 0.000000 1522.542236 -0.000000 -0.000000 -0.000000 1.000000 1.000000 1.000000 1.000000
2489.102783 0.000000 1559.240479 -0.000000 -0.000000 -0.000000 1.000000 1.000000 1.000000 1.000000
2363.132813 0.000000 1449.856567 -0.000000 -0.000000 -0.000000 1.000000 1.000000 1.000000 1.000000
1841.671631 0.000000 1523.308472 -0.000000 -0.000000 -0.000000 1.000000 1.000000 1.000000 1.000000
1621.999878 0.000000 1411.640259 -0.000000 -0.000000 -0.000000 1.000000 1.000000 1.000000 1.000000
1836.177612 0.000000 1323.760376 -0.000000 -0.000000 -0.000000 1.000000 1.000000 1.000000 1.000000
3277.956055 0.000000 1116.677979 -0.000000 -0.000000 -0.000000 1.000000 1.000000 1.000000 1.000000
2065.104492 0.000000 1330.467773 -0.000000 -0.000000 -0.000000 1.000000 1.000000 1.000000 1.000000
2291.792480 0.000000 1254.861572 -0.000000 -0.000000 -0.000000 1.000000 1.000000 1.000000 1.000000
2928.468262 0.000000 1426.045654 -0.000000 -0.000000 -0.000000 1.000000 1.000000 1.000000 1.000000
3056.082764 0.000000 1244.558472 -0.000000 -0.000000 -0.000000 1.000000 1.000000 1.000000 1.000000
2628.364502 0.000000 1382.210815 -0.000000 -0.000000 -0.000000 1.000000 1.000000 1.000000 1.000000
2824.583252 0.000000 1220.219482 -0.000000 -0.000000 -0.000000 1.000000 1.000000 1.000000 1.000000
2484.627686 0.000000 1142.947021 -0.000000 -0.000000 -0.000000 1.000000 1.000000 1.000000 1.000000
4984.312988 0.000000 2157.756104 -0.000000 -0.000000 -0.000000 1.000000 1.000000 1.000000 1.000000
4186.218262 0.000000 1609.037598 -0.000000 -0.000000 -0.000000 1.000000 1.000000 1.000000 1.000000
3693.033691 0.000000 403.575500 -0.000000 -0.000000 -0.000000 1.000000 1.000000 1.000000 1.000000
4771.539063 0.000000 1054.894287 -0.000000 -0.000000 -0.000000 1.000000 1.000000 1.000000 1.000000
2986.067871 0.000000 887.317444 -0.000000 -0.000000 -0.000000 1.000000 1.000000 1.000000 1.000000
944.289673 0.000000 1149.493652 -0.000000 -0.000000 -0.000000 1.000000 1.000000 1.000000 1.000000
2065.374023 0.000000 1019.651794 -0.000000 -0.000000 -0.000000 1.000000 1.000000 1.000000 1.000000
0.000000 0.000000 0.000000 -0.000000 -0.000000 -0.000000 1.000000 1.000000 1.000000 1.000000
0.000000 0.000000 0.000000 -0.000000 -0.000000 -0.000000 1.000000 1.000000 1.000000 1.000000
"}
object={
	name="amb_3D_field_emitter"
	clamp_to_water_level=no
	render_under_water=no
	generated_content=no
	layer="Audio_layer"
	entity="map_ambient_3D_field"
	count=97
	transform="1624.599854 0.000000 1603.572388 -0.000000 -0.000000 -0.000000 1.000000 1.000000 1.000000 1.000000
1552.281494 0.000000 1717.788940 -0.000000 -0.000000 -0.000000 1.000000 1.000000 1.000000 1.000000
1609.782593 0.000000 1782.216309 -0.000000 -0.000000 -0.000000 1.000000 1.000000 1.000000 1.000000
1566.912231 0.000000 1861.531738 -0.000000 -0.000000 -0.000000 1.000000 1.000000 1.000000 1.000000
464.888733 0.000000 2078.264160 -0.000000 -0.000000 -0.000000 1.000000 1.000000 1.000000 1.000000
410.783356 0.000000 2067.842285 -0.000000 -0.000000 -0.000000 1.000000 1.000000 1.000000 1.000000
339.581085 0.000000 2089.811279 -0.000000 -0.000000 -0.000000 1.000000 1.000000 1.000000 1.000000
814.599670 0.000000 2959.574951 -0.000000 -0.000000 -0.000000 1.000000 1.000000 1.000000 1.000000
917.145935 0.000000 2765.659912 -0.000000 -0.000000 -0.000000 1.000000 1.000000 1.000000 1.000000
1207.349243 0.000000 2568.728516 -0.000000 -0.000000 -0.000000 1.000000 1.000000 1.000000 1.000000
1452.112061 0.000000 2639.370605 -0.000000 -0.000000 -0.000000 1.000000 1.000000 1.000000 1.000000
2030.341675 0.000000 2267.998291 -0.000000 -0.000000 -0.000000 1.000000 1.000000 1.000000 1.000000
2102.531738 0.000000 2228.914551 -0.000000 -0.000000 -0.000000 1.000000 1.000000 1.000000 1.000000
2192.340088 0.000000 2304.598389 -0.000000 -0.000000 -0.000000 1.000000 1.000000 1.000000 1.000000
2315.635010 0.000000 2430.436279 -0.000000 -0.000000 -0.000000 1.000000 1.000000 1.000000 1.000000
2320.826416 0.000000 2533.736328 -0.000000 -0.000000 -0.000000 1.000000 1.000000 1.000000 1.000000
2235.438477 0.000000 2637.091553 -0.000000 -0.000000 -0.000000 1.000000 1.000000 1.000000 1.000000
2148.256348 0.000000 2816.037842 -0.000000 -0.000000 -0.000000 1.000000 1.000000 1.000000 1.000000
2403.287354 0.000000 2814.126953 -0.000000 -0.000000 -0.000000 1.000000 1.000000 1.000000 1.000000
2565.884277 0.000000 2645.694092 -0.000000 -0.000000 -0.000000 1.000000 1.000000 1.000000 1.000000
2722.938477 0.000000 2873.061035 -0.000000 -0.000000 -0.000000 1.000000 1.000000 1.000000 1.000000
2609.130127 0.000000 2862.779053 -0.000000 -0.000000 -0.000000 1.000000 1.000000 1.000000 1.000000
2575.354980 0.000000 2647.403320 -0.000000 -0.000000 -0.000000 1.000000 1.000000 1.000000 1.000000
2644.413574 0.000000 2681.099609 -0.000000 -0.000000 -0.000000 1.000000 1.000000 1.000000 1.000000
2519.487793 0.000000 2470.151367 -0.000000 -0.000000 -0.000000 1.000000 1.000000 1.000000 1.000000
2681.243164 0.000000 2392.616943 -0.000000 -0.000000 -0.000000 1.000000 1.000000 1.000000 1.000000
7183.107910 0.000000 2659.929932 -0.000000 -0.000000 -0.000000 1.000000 1.000000 1.000000 1.000000
4791.867188 0.000000 2020.230103 -0.000000 -0.000000 -0.000000 1.000000 1.000000 1.000000 1.000000
7746.335938 0.000000 1667.376953 -0.000000 -0.000000 -0.000000 1.000000 1.000000 1.000000 1.000000
7557.695801 0.000000 1589.692871 -0.000000 -0.000000 -0.000000 1.000000 1.000000 1.000000 1.000000
7567.739258 0.000000 1682.897339 -0.000000 -0.000000 -0.000000 1.000000 1.000000 1.000000 1.000000
7518.710938 0.000000 1722.335083 -0.000000 -0.000000 -0.000000 1.000000 1.000000 1.000000 1.000000
7601.673828 0.000000 1767.328491 -0.000000 -0.000000 -0.000000 1.000000 1.000000 1.000000 1.000000
7418.835449 0.000000 3275.032715 -0.000000 -0.000000 -0.000000 1.000000 1.000000 1.000000 1.000000
7401.970215 0.000000 3220.243652 -0.000000 -0.000000 -0.000000 1.000000 1.000000 1.000000 1.000000
7400.424316 0.000000 3233.914307 -0.000000 -0.000000 -0.000000 1.000000 1.000000 1.000000 1.000000
7314.102051 0.000000 3235.659912 -0.000000 -0.000000 -0.000000 1.000000 1.000000 1.000000 1.000000
7229.798828 0.000000 3244.862061 -0.000000 -0.000000 -0.000000 1.000000 1.000000 1.000000 1.000000
7138.909668 0.000000 3177.802490 -0.000000 -0.000000 -0.000000 1.000000 1.000000 1.000000 1.000000
7064.392578 0.000000 3148.597412 -0.000000 -0.000000 -0.000000 1.000000 1.000000 1.000000 1.000000
7072.750000 0.000000 3082.125732 -0.000000 -0.000000 -0.000000 1.000000 1.000000 1.000000 1.000000
7008.727539 0.000000 3053.173340 -0.000000 -0.000000 -0.000000 1.000000 1.000000 1.000000 1.000000
6935.666016 0.000000 2975.064697 -0.000000 -0.000000 -0.000000 1.000000 1.000000 1.000000 1.000000
6884.005859 0.000000 3013.820557 -0.000000 -0.000000 -0.000000 1.000000 1.000000 1.000000 1.000000
6746.454590 0.000000 2897.629395 -0.000000 -0.000000 -0.000000 1.000000 1.000000 1.000000 1.000000
6753.514160 0.000000 3023.585449 -0.000000 -0.000000 -0.000000 1.000000 1.000000 1.000000 1.000000
6841.391602 0.000000 2905.770508 -0.000000 -0.000000 -0.000000 1.000000 1.000000 1.000000 1.000000
2228.208496 0.000000 1987.625366 -0.000000 -0.000000 -0.000000 1.000000 1.000000 1.000000 1.000000
2017.679199 0.000000 1995.855103 -0.000000 -0.000000 -0.000000 1.000000 1.000000 1.000000 1.000000
2135.168945 0.000000 1990.199341 -0.000000 -0.000000 -0.000000 1.000000 1.000000 1.000000 1.000000
6358.689453 0.000000 2959.321289 -0.000000 -0.000000 -0.000000 1.000000 1.000000 1.000000 1.000000
6487.784180 0.000000 2259.531250 -0.000000 -0.000000 -0.000000 1.000000 1.000000 1.000000 1.000000
6090.083496 0.000000 3082.345947 -0.000000 -0.000000 -0.000000 1.000000 1.000000 1.000000 1.000000
6108.297363 0.000000 2959.626221 -0.000000 -0.000000 -0.000000 1.000000 1.000000 1.000000 1.000000
6213.708496 0.000000 3026.886719 -0.000000 -0.000000 -0.000000 1.000000 1.000000 1.000000 1.000000
6149.969727 0.000000 3016.853271 -0.000000 -0.000000 -0.000000 1.000000 1.000000 1.000000 1.000000
6103.958496 0.000000 3016.994873 -0.000000 -0.000000 -0.000000 1.000000 1.000000 1.000000 1.000000
6069.674805 0.000000 3056.978760 -0.000000 -0.000000 -0.000000 1.000000 1.000000 1.000000 1.000000
6039.578125 0.000000 3004.014404 -0.000000 -0.000000 -0.000000 1.000000 1.000000 1.000000 1.000000
6045.822266 0.000000 2955.307617 -0.000000 -0.000000 -0.000000 1.000000 1.000000 1.000000 1.000000
6065.794434 0.000000 2835.457520 -0.000000 -0.000000 -0.000000 1.000000 1.000000 1.000000 1.000000
6029.586426 0.000000 2791.818604 -0.000000 -0.000000 -0.000000 1.000000 1.000000 1.000000 1.000000
5974.061035 0.000000 2748.723633 -0.000000 -0.000000 -0.000000 1.000000 1.000000 1.000000 1.000000
6676.080566 0.000000 2499.395020 -0.000000 -0.000000 -0.000000 1.000000 1.000000 1.000000 1.000000
6600.841797 0.000000 2428.274414 -0.000000 -0.000000 -0.000000 1.000000 1.000000 1.000000 1.000000
6645.180664 0.000000 2440.015381 -0.000000 -0.000000 -0.000000 1.000000 1.000000 1.000000 1.000000
6721.575684 0.000000 2433.664795 -0.000000 -0.000000 -0.000000 1.000000 1.000000 1.000000 1.000000
6739.532227 0.000000 2400.268555 -0.000000 -0.000000 -0.000000 1.000000 1.000000 1.000000 1.000000
6697.046387 0.000000 2389.322266 -0.000000 -0.000000 -0.000000 1.000000 1.000000 1.000000 1.000000
6656.277832 0.000000 2363.607910 -0.000000 -0.000000 -0.000000 1.000000 1.000000 1.000000 1.000000
4356.812500 0.000000 1918.229492 -0.000000 -0.000000 -0.000000 1.000000 1.000000 1.000000 1.000000
4408.493652 0.000000 1924.112427 -0.000000 -0.000000 -0.000000 1.000000 1.000000 1.000000 1.000000
4369.801758 0.000000 1942.717896 -0.000000 -0.000000 -0.000000 1.000000 1.000000 1.000000 1.000000
4394.533203 0.000000 1949.711182 -0.000000 -0.000000 -0.000000 1.000000 1.000000 1.000000 1.000000
4427.213379 0.000000 1947.820679 -0.000000 -0.000000 -0.000000 1.000000 1.000000 1.000000 1.000000
3205.376953 0.000000 1579.322266 -0.000000 -0.000000 -0.000000 1.000000 1.000000 1.000000 1.000000
3119.235107 0.000000 1561.635742 -0.000000 -0.000000 -0.000000 1.000000 1.000000 1.000000 1.000000
4070.117920 0.000000 2047.188232 -0.000000 -0.000000 -0.000000 1.000000 1.000000 1.000000 1.000000
4183.169922 0.000000 1979.489868 -0.000000 -0.000000 -0.000000 1.000000 1.000000 1.000000 1.000000
2080.490967 0.000000 2732.095947 -0.000000 -0.000000 -0.000000 1.000000 1.000000 1.000000 1.000000
2043.108154 0.000000 2678.391357 -0.000000 -0.000000 -0.000000 1.000000 1.000000 1.000000 1.000000
1947.775879 0.000000 2532.451904 -0.000000 -0.000000 -0.000000 1.000000 1.000000 1.000000 1.000000
1901.428589 0.000000 2563.805908 -0.000000 -0.000000 -0.000000 1.000000 1.000000 1.000000 1.000000
1569.793701 0.000000 2518.111084 -0.000000 -0.000000 -0.000000 1.000000 1.000000 1.000000 1.000000
1451.505859 0.000000 2191.189941 -0.000000 -0.000000 -0.000000 1.000000 1.000000 1.000000 1.000000
1484.489380 0.000000 2133.139404 -0.000000 -0.000000 -0.000000 1.000000 1.000000 1.000000 1.000000
2359.367676 0.000000 2408.760010 -0.000000 -0.000000 -0.000000 1.000000 1.000000 1.000000 1.000000
2348.436768 0.000000 2265.913818 -0.000000 -0.000000 -0.000000 1.000000 1.000000 1.000000 1.000000
2398.721191 0.000000 2195.163330 -0.000000 -0.000000 -0.000000 1.000000 1.000000 1.000000 1.000000
2391.374023 0.000000 1989.189941 -0.000000 -0.000000 -0.000000 1.000000 1.000000 1.000000 1.000000
2005.719971 0.000000 2113.375000 -0.000000 -0.000000 -0.000000 1.000000 1.000000 1.000000 1.000000
1633.459839 0.000000 2626.154053 -0.000000 -0.000000 -0.000000 1.000000 1.000000 1.000000 1.000000
1662.481079 0.000000 2586.078369 -0.000000 -0.000000 -0.000000 1.000000 1.000000 1.000000 1.000000
1713.846069 0.000000 2544.444580 -0.000000 -0.000000 -0.000000 1.000000 1.000000 1.000000 1.000000
1884.729248 0.000000 2357.719727 -0.000000 -0.000000 -0.000000 1.000000 1.000000 1.000000 1.000000
1829.730225 0.000000 2400.857666 -0.000000 -0.000000 -0.000000 1.000000 1.000000 1.000000 1.000000
1787.945190 0.000000 2448.045410 -0.000000 -0.000000 -0.000000 1.000000 1.000000 1.000000 1.000000
"}
object={
	name="amb_3D_forest_emitter"
	clamp_to_water_level=no
	render_under_water=no
	generated_content=no
	layer="Audio_layer"
	entity="map_ambient_3D_forest"
	count=271
	transform="2622.314941 0.000000 2460.243408 -0.000000 -0.000000 -0.000000 1.000000 1.000000 1.000000 1.000000
2603.241943 0.000000 2422.512939 -0.000000 -0.000000 -0.000000 1.000000 1.000000 1.000000 1.000000
1866.019653 0.000000 1962.049316 -0.000000 -0.000000 -0.000000 1.000000 1.000000 1.000000 1.000000
1533.098877 0.000000 1868.707031 -0.000000 -0.000000 -0.000000 1.000000 1.000000 1.000000 1.000000
1464.922607 0.000000 1810.051025 -0.000000 -0.000000 -0.000000 1.000000 1.000000 1.000000 1.000000
1295.542114 0.000000 1738.301270 -0.000000 -0.000000 -0.000000 1.000000 1.000000 1.000000 1.000000
1217.238770 0.000000 1757.038208 -0.000000 -0.000000 -0.000000 1.000000 1.000000 1.000000 1.000000
690.436218 0.000000 1787.600830 -0.000000 -0.000000 -0.000000 1.000000 1.000000 1.000000 1.000000
546.228455 0.000000 1796.297363 -0.000000 -0.000000 -0.000000 1.000000 1.000000 1.000000 1.000000
396.150024 0.000000 1877.873779 -0.000000 -0.000000 -0.000000 1.000000 1.000000 1.000000 1.000000
427.100311 0.000000 1759.626587 -0.000000 -0.000000 -0.000000 1.000000 1.000000 1.000000 1.000000
338.860260 0.000000 1741.141113 -0.000000 -0.000000 -0.000000 1.000000 1.000000 1.000000 1.000000
2912.850586 0.000000 2214.691650 -0.000000 -0.000000 -0.000000 1.000000 1.000000 1.000000 1.000000
3448.132080 0.000000 2037.715454 -0.000000 -0.000000 -0.000000 1.000000 1.000000 1.000000 1.000000
3434.834717 0.000000 1897.844482 -0.000000 -0.000000 -0.000000 1.000000 1.000000 1.000000 1.000000
3432.718750 0.000000 1809.801636 -0.000000 -0.000000 -0.000000 1.000000 1.000000 1.000000 1.000000
3750.332520 0.000000 3057.724854 -0.000000 -0.000000 -0.000000 1.000000 1.000000 1.000000 1.000000
4047.368652 0.000000 2704.900146 -0.000000 -0.000000 -0.000000 1.000000 1.000000 1.000000 1.000000
3938.949219 0.000000 2646.170898 -0.000000 -0.000000 -0.000000 1.000000 1.000000 1.000000 1.000000
3832.430908 0.000000 2590.438232 -0.000000 -0.000000 -0.000000 1.000000 1.000000 1.000000 1.000000
3789.445801 0.000000 2648.921875 -0.000000 -0.000000 -0.000000 1.000000 1.000000 1.000000 1.000000
3624.816406 0.000000 2752.104492 -0.000000 -0.000000 -0.000000 1.000000 1.000000 1.000000 1.000000
3611.808350 0.000000 2636.934570 -0.000000 -0.000000 -0.000000 1.000000 1.000000 1.000000 1.000000
3573.275879 0.000000 2519.327393 -0.000000 -0.000000 -0.000000 1.000000 1.000000 1.000000 1.000000
3378.286865 0.000000 2398.503906 -0.000000 -0.000000 -0.000000 1.000000 1.000000 1.000000 1.000000
3355.216797 0.000000 2539.347168 -0.000000 -0.000000 -0.000000 1.000000 1.000000 1.000000 1.000000
3137.874023 0.000000 2511.464844 -0.000000 -0.000000 -0.000000 1.000000 1.000000 1.000000 1.000000
2975.047852 0.000000 2450.412598 -0.000000 -0.000000 -0.000000 1.000000 1.000000 1.000000 1.000000
2993.205322 0.000000 2320.727783 -0.000000 -0.000000 -0.000000 1.000000 1.000000 1.000000 1.000000
2749.670166 0.000000 2427.883789 -0.000000 -0.000000 -0.000000 1.000000 1.000000 1.000000 1.000000
2785.418457 0.000000 2420.958008 -0.000000 -0.000000 -0.000000 1.000000 1.000000 1.000000 1.000000
592.630127 0.000000 3616.662354 -0.000000 -0.000000 -0.000000 1.000000 1.000000 1.000000 1.000000
490.309967 0.000000 3369.611572 -0.000000 -0.000000 -0.000000 1.000000 1.000000 1.000000 1.000000
570.764099 0.000000 3378.748291 -0.000000 -0.000000 -0.000000 1.000000 1.000000 1.000000 1.000000
638.101013 0.000000 3437.564697 -0.000000 -0.000000 -0.000000 1.000000 1.000000 1.000000 1.000000
887.651062 0.000000 3932.188721 -0.000000 -0.000000 -0.000000 1.000000 1.000000 1.000000 1.000000
806.065674 0.000000 3836.101563 -0.000000 -0.000000 -0.000000 1.000000 1.000000 1.000000 1.000000
892.871704 0.000000 3785.851318 -0.000000 -0.000000 -0.000000 1.000000 1.000000 1.000000 1.000000
712.838196 0.000000 3725.200928 -0.000000 -0.000000 -0.000000 1.000000 1.000000 1.000000 1.000000
795.303467 0.000000 3642.891357 -0.000000 -0.000000 -0.000000 1.000000 1.000000 1.000000 1.000000
828.178406 0.000000 3614.030029 -0.000000 -0.000000 -0.000000 1.000000 1.000000 1.000000 1.000000
885.061279 0.000000 3592.777832 -0.000000 -0.000000 -0.000000 1.000000 1.000000 1.000000 1.000000
918.367310 0.000000 3511.689209 -0.000000 -0.000000 -0.000000 1.000000 1.000000 1.000000 1.000000
895.474243 0.000000 3390.105469 -0.000000 -0.000000 -0.000000 1.000000 1.000000 1.000000 1.000000
925.548096 0.000000 3332.781982 -0.000000 -0.000000 -0.000000 1.000000 1.000000 1.000000 1.000000
999.362366 0.000000 3264.686279 -0.000000 -0.000000 -0.000000 1.000000 1.000000 1.000000 1.000000
971.623657 0.000000 3208.141357 -0.000000 -0.000000 -0.000000 1.000000 1.000000 1.000000 1.000000
874.080933 0.000000 3207.634766 -0.000000 -0.000000 -0.000000 1.000000 1.000000 1.000000 1.000000
822.552490 0.000000 3216.016113 -0.000000 -0.000000 -0.000000 1.000000 1.000000 1.000000 1.000000
683.511169 0.000000 3188.887451 -0.000000 -0.000000 -0.000000 1.000000 1.000000 1.000000 1.000000
736.181274 0.000000 3021.354492 -0.000000 -0.000000 -0.000000 1.000000 1.000000 1.000000 1.000000
697.391296 0.000000 3010.112305 -0.000000 -0.000000 -0.000000 1.000000 1.000000 1.000000 1.000000
1294.115234 0.000000 2501.886963 -0.000000 -0.000000 -0.000000 1.000000 1.000000 1.000000 1.000000
1382.104614 0.000000 2598.303955 -0.000000 -0.000000 -0.000000 1.000000 1.000000 1.000000 1.000000
2134.637939 0.000000 3556.614014 -0.000000 -0.000000 -0.000000 1.000000 1.000000 1.000000 1.000000
2151.294922 0.000000 3613.321289 -0.000000 -0.000000 -0.000000 1.000000 1.000000 1.000000 1.000000
2122.354492 0.000000 3403.442871 -0.000000 -0.000000 -0.000000 1.000000 1.000000 1.000000 1.000000
2832.262695 0.000000 3504.176025 -0.000000 -0.000000 -0.000000 1.000000 1.000000 1.000000 1.000000
2880.360596 0.000000 3500.312988 -0.000000 -0.000000 -0.000000 1.000000 1.000000 1.000000 1.000000
3042.627197 0.000000 3526.643555 -0.000000 -0.000000 -0.000000 1.000000 1.000000 1.000000 1.000000
2952.458008 0.000000 3424.480469 -0.000000 -0.000000 -0.000000 1.000000 1.000000 1.000000 1.000000
2928.629395 0.000000 3337.904541 -0.000000 -0.000000 -0.000000 1.000000 1.000000 1.000000 1.000000
3075.019287 0.000000 3361.086914 -0.000000 -0.000000 -0.000000 1.000000 1.000000 1.000000 1.000000
2597.931396 0.000000 3391.151123 -0.000000 -0.000000 -0.000000 1.000000 1.000000 1.000000 1.000000
2614.347900 0.000000 3454.843994 -0.000000 -0.000000 -0.000000 1.000000 1.000000 1.000000 1.000000
2790.233398 0.000000 3401.780273 -0.000000 -0.000000 -0.000000 1.000000 1.000000 1.000000 1.000000
2811.852295 0.000000 3269.145996 -0.000000 -0.000000 -0.000000 1.000000 1.000000 1.000000 1.000000
2710.076904 0.000000 3302.832764 -0.000000 -0.000000 -0.000000 1.000000 1.000000 1.000000 1.000000
2615.503906 0.000000 3256.890381 -0.000000 -0.000000 -0.000000 1.000000 1.000000 1.000000 1.000000
2668.706055 0.000000 2949.665771 -0.000000 -0.000000 -0.000000 1.000000 1.000000 1.000000 1.000000
2679.769287 0.000000 2855.300049 -0.000000 -0.000000 -0.000000 1.000000 1.000000 1.000000 1.000000
2713.315430 0.000000 2738.172852 -0.000000 -0.000000 -0.000000 1.000000 1.000000 1.000000 1.000000
2515.601563 0.000000 2569.121094 -0.000000 -0.000000 -0.000000 1.000000 1.000000 1.000000 1.000000
2413.019775 0.000000 2564.237305 -0.000000 -0.000000 -0.000000 1.000000 1.000000 1.000000 1.000000
2210.343262 0.000000 2803.676270 -0.000000 -0.000000 -0.000000 1.000000 1.000000 1.000000 1.000000
2298.362061 0.000000 2725.049561 -0.000000 -0.000000 -0.000000 1.000000 1.000000 1.000000 1.000000
1943.542725 0.000000 3010.248535 -0.000000 -0.000000 -0.000000 1.000000 1.000000 1.000000 1.000000
1822.372559 0.000000 2977.153320 -0.000000 -0.000000 -0.000000 1.000000 1.000000 1.000000 1.000000
1758.851318 0.000000 3067.630127 -0.000000 -0.000000 -0.000000 1.000000 1.000000 1.000000 1.000000
1666.330444 0.000000 2967.246094 -0.000000 -0.000000 -0.000000 1.000000 1.000000 1.000000 1.000000
1557.426025 0.000000 2896.805664 -0.000000 -0.000000 -0.000000 1.000000 1.000000 1.000000 1.000000
1433.105713 0.000000 2902.885986 -0.000000 -0.000000 -0.000000 1.000000 1.000000 1.000000 1.000000
1186.016479 0.000000 2656.165283 -0.000000 -0.000000 -0.000000 1.000000 1.000000 1.000000 1.000000
891.459717 0.000000 2380.588623 -0.000000 -0.000000 -0.000000 1.000000 1.000000 1.000000 1.000000
329.541779 0.000000 2119.320068 -0.000000 -0.000000 -0.000000 1.000000 1.000000 1.000000 1.000000
257.955170 0.000000 2218.759521 -0.000000 -0.000000 -0.000000 1.000000 1.000000 1.000000 1.000000
500.815033 0.000000 2361.314209 -0.000000 -0.000000 -0.000000 1.000000 1.000000 1.000000 1.000000
359.914825 0.000000 2298.580322 -0.000000 -0.000000 -0.000000 1.000000 1.000000 1.000000 1.000000
337.955170 0.000000 2377.618652 -0.000000 -0.000000 -0.000000 1.000000 1.000000 1.000000 1.000000
382.937897 0.000000 2558.638184 -0.000000 -0.000000 -0.000000 1.000000 1.000000 1.000000 1.000000
466.307343 0.000000 2521.635498 -0.000000 -0.000000 -0.000000 1.000000 1.000000 1.000000 1.000000
519.961243 0.000000 2520.370850 -0.000000 -0.000000 -0.000000 1.000000 1.000000 1.000000 1.000000
787.891235 0.000000 2426.684326 -0.000000 -0.000000 -0.000000 1.000000 1.000000 1.000000 1.000000
856.359863 0.000000 2606.498047 -0.000000 -0.000000 -0.000000 1.000000 1.000000 1.000000 1.000000
849.495972 0.000000 2822.705322 -0.000000 -0.000000 -0.000000 1.000000 1.000000 1.000000 1.000000
1173.197998 0.000000 2881.026611 -0.000000 -0.000000 -0.000000 1.000000 1.000000 1.000000 1.000000
995.851624 0.000000 2823.323730 -0.000000 -0.000000 -0.000000 1.000000 1.000000 1.000000 1.000000
1046.822510 0.000000 2731.175049 -0.000000 -0.000000 -0.000000 1.000000 1.000000 1.000000 1.000000
1064.546753 0.000000 2667.581299 -0.000000 -0.000000 -0.000000 1.000000 1.000000 1.000000 1.000000
1056.232300 0.000000 2532.041504 -0.000000 -0.000000 -0.000000 1.000000 1.000000 1.000000 1.000000
1451.917969 0.000000 3306.338135 -0.000000 -0.000000 -0.000000 1.000000 1.000000 1.000000 1.000000
1452.845215 0.000000 3142.653809 -0.000000 -0.000000 -0.000000 1.000000 1.000000 1.000000 1.000000
1352.882080 0.000000 3253.545410 -0.000000 -0.000000 -0.000000 1.000000 1.000000 1.000000 1.000000
1233.094482 0.000000 3218.612793 -0.000000 -0.000000 -0.000000 1.000000 1.000000 1.000000 1.000000
1207.069702 0.000000 3138.749268 -0.000000 -0.000000 -0.000000 1.000000 1.000000 1.000000 1.000000
962.751343 0.000000 2981.848145 -0.000000 -0.000000 -0.000000 1.000000 1.000000 1.000000 1.000000
1057.101807 0.000000 3052.204102 -0.000000 -0.000000 -0.000000 1.000000 1.000000 1.000000 1.000000
1166.927490 0.000000 3062.778320 -0.000000 -0.000000 -0.000000 1.000000 1.000000 1.000000 1.000000
1453.216187 0.000000 2998.705566 -0.000000 -0.000000 -0.000000 1.000000 1.000000 1.000000 1.000000
1376.440430 0.000000 2983.705078 -0.000000 -0.000000 -0.000000 1.000000 1.000000 1.000000 1.000000
1204.235107 0.000000 2950.561523 -0.000000 -0.000000 -0.000000 1.000000 1.000000 1.000000 1.000000
1265.707764 0.000000 2820.807617 -0.000000 -0.000000 -0.000000 1.000000 1.000000 1.000000 1.000000
1572.412842 0.000000 3354.505859 -0.000000 -0.000000 -0.000000 1.000000 1.000000 1.000000 1.000000
1520.513062 0.000000 3235.479736 -0.000000 -0.000000 -0.000000 1.000000 1.000000 1.000000 1.000000
2671.643066 0.000000 2639.824463 -0.000000 -0.000000 -0.000000 1.000000 1.000000 1.000000 1.000000
2288.947266 0.000000 2579.067627 -0.000000 -0.000000 -0.000000 1.000000 1.000000 1.000000 1.000000
2310.442139 0.000000 2897.221680 -0.000000 -0.000000 -0.000000 1.000000 1.000000 1.000000 1.000000
2110.814941 0.000000 2869.406250 -0.000000 -0.000000 -0.000000 1.000000 1.000000 1.000000 1.000000
1962.398682 0.000000 2887.718750 -0.000000 -0.000000 -0.000000 1.000000 1.000000 1.000000 1.000000
1833.059814 0.000000 3053.032715 -0.000000 -0.000000 -0.000000 1.000000 1.000000 1.000000 1.000000
7813.759277 0.000000 1586.038208 -0.000000 -0.000000 -0.000000 1.000000 1.000000 1.000000 1.000000
7907.929688 0.000000 1558.459473 -0.000000 -0.000000 -0.000000 1.000000 1.000000 1.000000 1.000000
7872.647461 0.000000 1669.154541 -0.000000 -0.000000 -0.000000 1.000000 1.000000 1.000000 1.000000
7458.990234 0.000000 1882.136841 -0.000000 -0.000000 -0.000000 1.000000 1.000000 1.000000 1.000000
7297.506348 0.000000 2003.633301 -0.000000 -0.000000 -0.000000 1.000000 1.000000 1.000000 1.000000
7193.574707 0.000000 2154.776367 -0.000000 -0.000000 -0.000000 1.000000 1.000000 1.000000 1.000000
7034.711426 0.000000 2101.007324 -0.000000 -0.000000 -0.000000 1.000000 1.000000 1.000000 1.000000
6887.885254 0.000000 2186.502197 -0.000000 -0.000000 -0.000000 1.000000 1.000000 1.000000 1.000000
6640.683105 0.000000 2702.916748 -0.000000 -0.000000 -0.000000 1.000000 1.000000 1.000000 1.000000
6763.562012 0.000000 2754.992432 -0.000000 -0.000000 -0.000000 1.000000 1.000000 1.000000 1.000000
6789.630371 0.000000 2645.315674 -0.000000 -0.000000 -0.000000 1.000000 1.000000 1.000000 1.000000
7326.454102 0.000000 2311.260498 -0.000000 -0.000000 -0.000000 1.000000 1.000000 1.000000 1.000000
7025.252930 0.000000 2335.896240 -0.000000 -0.000000 -0.000000 1.000000 1.000000 1.000000 1.000000
6910.465332 0.000000 2444.048340 -0.000000 -0.000000 -0.000000 1.000000 1.000000 1.000000 1.000000
7273.519043 0.000000 2584.683594 -0.000000 -0.000000 -0.000000 1.000000 1.000000 1.000000 1.000000
7396.952148 0.000000 2558.445313 -0.000000 -0.000000 -0.000000 1.000000 1.000000 1.000000 1.000000
7246.922852 0.000000 2692.086914 -0.000000 -0.000000 -0.000000 1.000000 1.000000 1.000000 1.000000
7423.440918 0.000000 2729.191162 -0.000000 -0.000000 -0.000000 1.000000 1.000000 1.000000 1.000000
7102.580566 0.000000 2891.026855 -0.000000 -0.000000 -0.000000 1.000000 1.000000 1.000000 1.000000
7212.656250 0.000000 2862.760498 -0.000000 -0.000000 -0.000000 1.000000 1.000000 1.000000 1.000000
7414.725098 0.000000 2898.647705 -0.000000 -0.000000 -0.000000 1.000000 1.000000 1.000000 1.000000
7251.502441 0.000000 3023.528320 -0.000000 -0.000000 -0.000000 1.000000 1.000000 1.000000 1.000000
7442.280273 0.000000 3039.194092 -0.000000 -0.000000 -0.000000 1.000000 1.000000 1.000000 1.000000
7616.676270 0.000000 3539.849609 -0.000000 -0.000000 -0.000000 1.000000 1.000000 1.000000 1.000000
7748.278320 0.000000 3450.125488 -0.000000 -0.000000 -0.000000 1.000000 1.000000 1.000000 1.000000
7704.449707 0.000000 3370.594971 -0.000000 -0.000000 -0.000000 1.000000 1.000000 1.000000 1.000000
7562.979492 0.000000 3380.044434 -0.000000 -0.000000 -0.000000 1.000000 1.000000 1.000000 1.000000
7609.591309 0.000000 3288.918701 -0.000000 -0.000000 -0.000000 1.000000 1.000000 1.000000 1.000000
7459.228027 0.000000 3407.543945 -0.000000 -0.000000 -0.000000 1.000000 1.000000 1.000000 1.000000
7340.505859 0.000000 3434.395264 -0.000000 -0.000000 -0.000000 1.000000 1.000000 1.000000 1.000000
7266.061523 0.000000 3345.189697 -0.000000 -0.000000 -0.000000 1.000000 1.000000 1.000000 1.000000
7131.062988 0.000000 3262.759033 -0.000000 -0.000000 -0.000000 1.000000 1.000000 1.000000 1.000000
7024.208496 0.000000 3209.210205 -0.000000 -0.000000 -0.000000 1.000000 1.000000 1.000000 1.000000
6403.933105 0.000000 2358.432617 -0.000000 -0.000000 -0.000000 1.000000 1.000000 1.000000 1.000000
6411.746582 0.000000 2153.472412 -0.000000 -0.000000 -0.000000 1.000000 1.000000 1.000000 1.000000
6707.145996 0.000000 2190.652832 -0.000000 -0.000000 -0.000000 1.000000 1.000000 1.000000 1.000000
1335.239502 0.000000 3863.795410 -0.000000 -0.000000 -0.000000 1.000000 1.000000 1.000000 1.000000
1375.648071 0.000000 3830.197510 -0.000000 -0.000000 -0.000000 1.000000 1.000000 1.000000 1.000000
3819.263916 0.000000 2944.264648 -0.000000 -0.000000 -0.000000 1.000000 1.000000 1.000000 1.000000
3728.993896 0.000000 2918.914795 -0.000000 -0.000000 -0.000000 1.000000 1.000000 1.000000 1.000000
3487.877197 0.000000 3026.822266 -0.000000 -0.000000 -0.000000 1.000000 1.000000 1.000000 1.000000
3546.367188 0.000000 2991.893311 -0.000000 -0.000000 -0.000000 1.000000 1.000000 1.000000 1.000000
3510.019531 0.000000 2901.779541 -0.000000 -0.000000 -0.000000 1.000000 1.000000 1.000000 1.000000
3430.170166 0.000000 2879.207275 -0.000000 -0.000000 -0.000000 1.000000 1.000000 1.000000 1.000000
3368.886475 0.000000 2901.435791 -0.000000 -0.000000 -0.000000 1.000000 1.000000 1.000000 1.000000
3391.818848 0.000000 2959.487061 -0.000000 -0.000000 -0.000000 1.000000 1.000000 1.000000 1.000000
3314.763184 0.000000 2982.687256 -0.000000 -0.000000 -0.000000 1.000000 1.000000 1.000000 1.000000
3260.127441 0.000000 2900.679688 -0.000000 -0.000000 -0.000000 1.000000 1.000000 1.000000 1.000000
3054.784424 0.000000 2884.581787 -0.000000 -0.000000 -0.000000 1.000000 1.000000 1.000000 1.000000
2953.125977 0.000000 2934.211914 -0.000000 -0.000000 -0.000000 1.000000 1.000000 1.000000 1.000000
3014.792480 0.000000 2970.045898 -0.000000 -0.000000 -0.000000 1.000000 1.000000 1.000000 1.000000
2911.143799 0.000000 3216.417480 -0.000000 -0.000000 -0.000000 1.000000 1.000000 1.000000 1.000000
2816.157715 0.000000 3155.792725 -0.000000 -0.000000 -0.000000 1.000000 1.000000 1.000000 1.000000
2709.317871 0.000000 3100.855225 -0.000000 -0.000000 -0.000000 1.000000 1.000000 1.000000 1.000000
2568.417480 0.000000 3006.034180 -0.000000 -0.000000 -0.000000 1.000000 1.000000 1.000000 1.000000
2581.406982 0.000000 3194.844482 -0.000000 -0.000000 -0.000000 1.000000 1.000000 1.000000 1.000000
2445.641357 0.000000 3066.517090 -0.000000 -0.000000 -0.000000 1.000000 1.000000 1.000000 1.000000
2380.465332 0.000000 3172.144775 -0.000000 -0.000000 -0.000000 1.000000 1.000000 1.000000 1.000000
2396.588867 0.000000 3262.555420 -0.000000 -0.000000 -0.000000 1.000000 1.000000 1.000000 1.000000
2388.076904 0.000000 3471.812256 -0.000000 -0.000000 -0.000000 1.000000 1.000000 1.000000 1.000000
2332.083740 0.000000 3426.586914 -0.000000 -0.000000 -0.000000 1.000000 1.000000 1.000000 1.000000
2303.033203 0.000000 3432.171143 -0.000000 -0.000000 -0.000000 1.000000 1.000000 1.000000 1.000000
2282.965332 0.000000 3387.590820 -0.000000 -0.000000 -0.000000 1.000000 1.000000 1.000000 1.000000
2087.927734 0.000000 3183.964600 -0.000000 -0.000000 -0.000000 1.000000 1.000000 1.000000 1.000000
2093.321045 0.000000 3219.804688 -0.000000 -0.000000 -0.000000 1.000000 1.000000 1.000000 1.000000
2118.648926 0.000000 3193.225830 -0.000000 -0.000000 -0.000000 1.000000 1.000000 1.000000 1.000000
2244.286621 0.000000 3331.072754 -0.000000 -0.000000 -0.000000 1.000000 1.000000 1.000000 1.000000
2215.866943 0.000000 3322.607422 -0.000000 -0.000000 -0.000000 1.000000 1.000000 1.000000 1.000000
2191.703369 0.000000 3292.765137 -0.000000 -0.000000 -0.000000 1.000000 1.000000 1.000000 1.000000
2191.141357 0.000000 3246.967041 -0.000000 -0.000000 -0.000000 1.000000 1.000000 1.000000 1.000000
2165.432861 0.000000 3241.626221 -0.000000 -0.000000 -0.000000 1.000000 1.000000 1.000000 1.000000
2141.284424 0.000000 3297.169678 -0.000000 -0.000000 -0.000000 1.000000 1.000000 1.000000 1.000000
2113.101563 0.000000 3287.903320 -0.000000 -0.000000 -0.000000 1.000000 1.000000 1.000000 1.000000
2039.838501 0.000000 3295.527100 -0.000000 -0.000000 -0.000000 1.000000 1.000000 1.000000 1.000000
2074.462158 0.000000 3284.331299 -0.000000 -0.000000 -0.000000 1.000000 1.000000 1.000000 1.000000
2057.579346 0.000000 3325.612305 -0.000000 -0.000000 -0.000000 1.000000 1.000000 1.000000 1.000000
2013.663086 0.000000 3326.448975 -0.000000 -0.000000 -0.000000 1.000000 1.000000 1.000000 1.000000
1969.427246 0.000000 3351.648682 -0.000000 -0.000000 -0.000000 1.000000 1.000000 1.000000 1.000000
1919.407349 0.000000 3349.947998 -0.000000 -0.000000 -0.000000 1.000000 1.000000 1.000000 1.000000
1965.599731 0.000000 3265.846191 -0.000000 -0.000000 -0.000000 1.000000 1.000000 1.000000 1.000000
1867.829224 0.000000 3268.939453 -0.000000 -0.000000 -0.000000 1.000000 1.000000 1.000000 1.000000
1778.084106 0.000000 3274.650391 -0.000000 -0.000000 -0.000000 1.000000 1.000000 1.000000 1.000000
1812.764282 0.000000 3293.344482 -0.000000 -0.000000 -0.000000 1.000000 1.000000 1.000000 1.000000
1762.725220 0.000000 3300.911133 -0.000000 -0.000000 -0.000000 1.000000 1.000000 1.000000 1.000000
1791.761597 0.000000 3337.260742 -0.000000 -0.000000 -0.000000 1.000000 1.000000 1.000000 1.000000
1714.333740 0.000000 3338.465820 -0.000000 -0.000000 -0.000000 1.000000 1.000000 1.000000 1.000000
1735.631592 0.000000 3283.945801 -0.000000 -0.000000 -0.000000 1.000000 1.000000 1.000000 1.000000
1646.072021 0.000000 3406.002441 -0.000000 -0.000000 -0.000000 1.000000 1.000000 1.000000 1.000000
1622.236328 0.000000 3402.236084 -0.000000 -0.000000 -0.000000 1.000000 1.000000 1.000000 1.000000
1483.803223 0.000000 3566.735352 -0.000000 -0.000000 -0.000000 1.000000 1.000000 1.000000 1.000000
1444.143921 0.000000 3601.008789 -0.000000 -0.000000 -0.000000 1.000000 1.000000 1.000000 1.000000
1838.069336 0.000000 3907.533936 -0.000000 -0.000000 -0.000000 1.000000 1.000000 1.000000 1.000000
1838.737793 0.000000 3738.499023 -0.000000 -0.000000 -0.000000 1.000000 1.000000 1.000000 1.000000
1842.204468 0.000000 3795.909424 -0.000000 -0.000000 -0.000000 1.000000 1.000000 1.000000 1.000000
1822.593384 0.000000 3841.655029 -0.000000 -0.000000 -0.000000 1.000000 1.000000 1.000000 1.000000
1780.215210 0.000000 3816.062744 -0.000000 -0.000000 -0.000000 1.000000 1.000000 1.000000 1.000000
1733.292969 0.000000 3726.139893 -0.000000 -0.000000 -0.000000 1.000000 1.000000 1.000000 1.000000
1727.077637 0.000000 3844.845459 -0.000000 -0.000000 -0.000000 1.000000 1.000000 1.000000 1.000000
1669.149902 0.000000 3837.377930 -0.000000 -0.000000 -0.000000 1.000000 1.000000 1.000000 1.000000
1664.340820 0.000000 4022.210449 -0.000000 -0.000000 -0.000000 1.000000 1.000000 1.000000 1.000000
1749.951538 0.000000 4030.953857 -0.000000 -0.000000 -0.000000 1.000000 1.000000 1.000000 1.000000
1806.701294 0.000000 4004.183105 -0.000000 -0.000000 -0.000000 1.000000 1.000000 1.000000 1.000000
1910.160522 0.000000 4007.357178 -0.000000 -0.000000 -0.000000 1.000000 1.000000 1.000000 1.000000
1856.343628 0.000000 3988.307617 -0.000000 -0.000000 -0.000000 1.000000 1.000000 1.000000 1.000000
1815.080933 0.000000 3955.517578 -0.000000 -0.000000 -0.000000 1.000000 1.000000 1.000000 1.000000
1748.470825 0.000000 3964.700684 -0.000000 -0.000000 -0.000000 1.000000 1.000000 1.000000 1.000000
1701.530273 0.000000 3970.329102 -0.000000 -0.000000 -0.000000 1.000000 1.000000 1.000000 1.000000
1643.245728 0.000000 3965.991211 -0.000000 -0.000000 -0.000000 1.000000 1.000000 1.000000 1.000000
1599.346313 0.000000 3965.799316 -0.000000 -0.000000 -0.000000 1.000000 1.000000 1.000000 1.000000
1573.830078 0.000000 3931.939453 -0.000000 -0.000000 -0.000000 1.000000 1.000000 1.000000 1.000000
1604.317383 0.000000 3858.712646 -0.000000 -0.000000 -0.000000 1.000000 1.000000 1.000000 1.000000
1603.189941 0.000000 3823.463623 -0.000000 -0.000000 -0.000000 1.000000 1.000000 1.000000 1.000000
1647.816895 0.000000 3767.193848 -0.000000 -0.000000 -0.000000 1.000000 1.000000 1.000000 1.000000
1690.748413 0.000000 3814.055420 -0.000000 -0.000000 -0.000000 1.000000 1.000000 1.000000 1.000000
1716.879639 0.000000 3785.071045 -0.000000 -0.000000 -0.000000 1.000000 1.000000 1.000000 1.000000
1805.814697 0.000000 3770.592773 -0.000000 -0.000000 -0.000000 1.000000 1.000000 1.000000 1.000000
1698.704102 0.000000 3720.441406 -0.000000 -0.000000 -0.000000 1.000000 1.000000 1.000000 1.000000
1761.103271 0.000000 3730.321289 -0.000000 -0.000000 -0.000000 1.000000 1.000000 1.000000 1.000000
1824.147217 0.000000 3705.169922 -0.000000 -0.000000 -0.000000 1.000000 1.000000 1.000000 1.000000
1734.559082 0.000000 3682.497070 -0.000000 -0.000000 -0.000000 1.000000 1.000000 1.000000 1.000000
1692.717773 0.000000 3662.389404 -0.000000 -0.000000 -0.000000 1.000000 1.000000 1.000000 1.000000
1687.919922 0.000000 3629.962158 -0.000000 -0.000000 -0.000000 1.000000 1.000000 1.000000 1.000000
1736.115845 0.000000 3623.467773 -0.000000 -0.000000 -0.000000 1.000000 1.000000 1.000000 1.000000
1447.058105 0.000000 3638.746826 -0.000000 -0.000000 -0.000000 1.000000 1.000000 1.000000 1.000000
1489.940063 0.000000 3540.566162 -0.000000 -0.000000 -0.000000 1.000000 1.000000 1.000000 1.000000
2023.257935 0.000000 2682.662354 -0.000000 -0.000000 -0.000000 1.000000 1.000000 1.000000 1.000000
2064.006836 0.000000 2547.119385 -0.000000 -0.000000 -0.000000 1.000000 1.000000 1.000000 1.000000
2015.171631 0.000000 2541.206787 -0.000000 -0.000000 -0.000000 1.000000 1.000000 1.000000 1.000000
1897.953979 0.000000 2597.548828 -0.000000 -0.000000 -0.000000 1.000000 1.000000 1.000000 1.000000
1970.987915 0.000000 2639.463135 -0.000000 -0.000000 -0.000000 1.000000 1.000000 1.000000 1.000000
1912.452881 0.000000 2662.430420 -0.000000 -0.000000 -0.000000 1.000000 1.000000 1.000000 1.000000
1872.925537 0.000000 2668.768555 -0.000000 -0.000000 -0.000000 1.000000 1.000000 1.000000 1.000000
1706.968506 0.000000 2730.025879 -0.000000 -0.000000 -0.000000 1.000000 1.000000 1.000000 1.000000
1664.447998 0.000000 2709.239258 -0.000000 -0.000000 -0.000000 1.000000 1.000000 1.000000 1.000000
1592.418335 0.000000 2616.757324 -0.000000 -0.000000 -0.000000 1.000000 1.000000 1.000000 1.000000
1451.776489 0.000000 2206.333252 -0.000000 -0.000000 -0.000000 1.000000 1.000000 1.000000 1.000000
1442.912598 0.000000 2241.658447 -0.000000 -0.000000 -0.000000 1.000000 1.000000 1.000000 1.000000
2380.017822 0.000000 2462.630371 -0.000000 -0.000000 -0.000000 1.000000 1.000000 1.000000 1.000000
2317.939453 0.000000 2348.440186 -0.000000 -0.000000 -0.000000 1.000000 1.000000 1.000000 1.000000
2332.846680 0.000000 2299.007568 -0.000000 -0.000000 -0.000000 1.000000 1.000000 1.000000 1.000000
2405.796387 0.000000 2195.292480 -0.000000 -0.000000 -0.000000 1.000000 1.000000 1.000000 1.000000
2249.761719 0.000000 2226.110352 -0.000000 -0.000000 -0.000000 1.000000 1.000000 1.000000 1.000000
2215.957275 0.000000 2268.303711 -0.000000 -0.000000 -0.000000 1.000000 1.000000 1.000000 1.000000
1744.151855 0.000000 2424.356445 -0.000000 -0.000000 -0.000000 1.000000 1.000000 1.000000 1.000000
2015.835083 0.000000 2264.253662 -0.000000 -0.000000 -0.000000 1.000000 1.000000 1.000000 1.000000
1993.172363 0.000000 2293.751709 -0.000000 -0.000000 -0.000000 1.000000 1.000000 1.000000 1.000000
1917.806763 0.000000 2347.126709 -0.000000 -0.000000 -0.000000 1.000000 1.000000 1.000000 1.000000
1912.287598 0.000000 2294.186279 -0.000000 -0.000000 -0.000000 1.000000 1.000000 1.000000 1.000000
1893.196411 0.000000 2286.114746 -0.000000 -0.000000 -0.000000 1.000000 1.000000 1.000000 1.000000
1730.242798 0.000000 2408.688232 -0.000000 -0.000000 -0.000000 1.000000 1.000000 1.000000 1.000000
1726.431274 0.000000 2470.614990 -0.000000 -0.000000 -0.000000 1.000000 1.000000 1.000000 1.000000
"}
object={
	name="amb_3D_mountain_emitter"
	clamp_to_water_level=no
	render_under_water=no
	generated_content=no
	layer="Audio_layer"
	entity="map_ambient_3D_mountain"
	count=177
	transform="766.492615 0.000000 3798.584229 -0.000000 -0.000000 -0.000000 1.000000 1.000000 1.000000 1.000000
797.849365 0.000000 3866.479492 -0.000000 -0.000000 -0.000000 1.000000 1.000000 1.000000 1.000000
840.851746 0.000000 3771.735107 -0.000000 -0.000000 -0.000000 1.000000 1.000000 1.000000 1.000000
772.521301 0.000000 3721.857422 -0.000000 -0.000000 -0.000000 1.000000 1.000000 1.000000 1.000000
866.466431 0.000000 3548.455078 -0.000000 -0.000000 -0.000000 1.000000 1.000000 1.000000 1.000000
882.069275 0.000000 3462.397705 -0.000000 -0.000000 -0.000000 1.000000 1.000000 1.000000 1.000000
777.553162 0.000000 3379.929443 -0.000000 -0.000000 -0.000000 1.000000 1.000000 1.000000 1.000000
1649.913330 0.000000 2752.350586 -0.000000 -0.000000 -0.000000 1.000000 1.000000 1.000000 1.000000
1602.213623 0.000000 2812.217285 -0.000000 -0.000000 -0.000000 1.000000 1.000000 1.000000 1.000000
1708.908569 0.000000 2826.025635 -0.000000 -0.000000 -0.000000 1.000000 1.000000 1.000000 1.000000
1787.836670 0.000000 2875.624756 -0.000000 -0.000000 -0.000000 1.000000 1.000000 1.000000 1.000000
1884.468506 0.000000 2871.148193 -0.000000 -0.000000 -0.000000 1.000000 1.000000 1.000000 1.000000
1833.086792 0.000000 2825.495605 -0.000000 -0.000000 -0.000000 1.000000 1.000000 1.000000 1.000000
1804.839844 0.000000 2701.350830 -0.000000 -0.000000 -0.000000 1.000000 1.000000 1.000000 1.000000
1842.273560 0.000000 2701.416260 -0.000000 -0.000000 -0.000000 1.000000 1.000000 1.000000 1.000000
1879.378540 0.000000 2596.357910 -0.000000 -0.000000 -0.000000 1.000000 1.000000 1.000000 1.000000
1955.530762 0.000000 2563.694092 -0.000000 -0.000000 -0.000000 1.000000 1.000000 1.000000 1.000000
1983.011719 0.000000 2580.479736 -0.000000 -0.000000 -0.000000 1.000000 1.000000 1.000000 1.000000
2071.920410 0.000000 2522.704834 -0.000000 -0.000000 -0.000000 1.000000 1.000000 1.000000 1.000000
2120.684814 0.000000 2517.963867 -0.000000 -0.000000 -0.000000 1.000000 1.000000 1.000000 1.000000
2205.223389 0.000000 2538.247070 -0.000000 -0.000000 -0.000000 1.000000 1.000000 1.000000 1.000000
2188.826660 0.000000 2467.404541 -0.000000 -0.000000 -0.000000 1.000000 1.000000 1.000000 1.000000
2246.409424 0.000000 2392.420898 -0.000000 -0.000000 -0.000000 1.000000 1.000000 1.000000 1.000000
2392.864746 0.000000 2414.779785 -0.000000 -0.000000 -0.000000 1.000000 1.000000 1.000000 1.000000
2429.806885 0.000000 2438.031982 -0.000000 -0.000000 -0.000000 1.000000 1.000000 1.000000 1.000000
2503.532227 0.000000 2404.548340 -0.000000 -0.000000 -0.000000 1.000000 1.000000 1.000000 1.000000
2491.859863 0.000000 2508.841309 -0.000000 -0.000000 -0.000000 1.000000 1.000000 1.000000 1.000000
2590.195313 0.000000 2530.103271 -0.000000 -0.000000 -0.000000 1.000000 1.000000 1.000000 1.000000
3154.670410 0.000000 2484.400391 -0.000000 -0.000000 -0.000000 1.000000 1.000000 1.000000 1.000000
3006.594727 0.000000 2409.486816 -0.000000 -0.000000 -0.000000 1.000000 1.000000 1.000000 1.000000
6689.100098 0.000000 3381.239502 -0.000000 -0.000000 -0.000000 1.000000 1.000000 1.000000 1.000000
6629.000488 0.000000 3336.733154 -0.000000 -0.000000 -0.000000 1.000000 1.000000 1.000000 1.000000
6494.056641 0.000000 3299.589111 -0.000000 -0.000000 -0.000000 1.000000 1.000000 1.000000 1.000000
6345.629883 0.000000 3273.685791 -0.000000 -0.000000 -0.000000 1.000000 1.000000 1.000000 1.000000
4165.971191 0.000000 425.726440 -0.000000 -0.000000 -0.000000 1.000000 1.000000 1.000000 1.000000
4194.408203 0.000000 248.913620 -0.000000 -0.000000 -0.000000 1.000000 1.000000 1.000000 1.000000
4163.162109 0.000000 113.938858 -0.000000 -0.000000 -0.000000 1.000000 1.000000 1.000000 1.000000
3444.333008 0.000000 1391.906860 -0.000000 -0.000000 -0.000000 1.000000 1.000000 1.000000 1.000000
1528.084473 0.000000 1777.603760 -0.000000 -0.000000 -0.000000 1.000000 1.000000 1.000000 1.000000
1516.932983 0.000000 1833.548340 -0.000000 -0.000000 -0.000000 1.000000 1.000000 1.000000 1.000000
1433.776123 0.000000 1889.842529 -0.000000 -0.000000 -0.000000 1.000000 1.000000 1.000000 1.000000
1265.307007 0.000000 1899.954468 -0.000000 -0.000000 -0.000000 1.000000 1.000000 1.000000 1.000000
1071.064453 0.000000 1891.771240 -0.000000 -0.000000 -0.000000 1.000000 1.000000 1.000000 1.000000
922.965393 0.000000 1836.550903 -0.000000 -0.000000 -0.000000 1.000000 1.000000 1.000000 1.000000
506.990295 0.000000 1602.792603 -0.000000 -0.000000 -0.000000 1.000000 1.000000 1.000000 1.000000
409.939941 0.000000 1584.745361 -0.000000 -0.000000 -0.000000 1.000000 1.000000 1.000000 1.000000
337.953705 0.000000 1554.013794 -0.000000 -0.000000 -0.000000 1.000000 1.000000 1.000000 1.000000
239.974701 0.000000 1536.661377 -0.000000 -0.000000 -0.000000 1.000000 1.000000 1.000000 1.000000
126.458893 0.000000 1518.712769 -0.000000 -0.000000 -0.000000 1.000000 1.000000 1.000000 1.000000
500.834991 0.000000 1812.257324 -0.000000 -0.000000 -0.000000 1.000000 1.000000 1.000000 1.000000
432.571259 0.000000 1860.718018 -0.000000 -0.000000 -0.000000 1.000000 1.000000 1.000000 1.000000
630.526978 0.000000 1994.473877 -0.000000 -0.000000 -0.000000 1.000000 1.000000 1.000000 1.000000
561.922302 0.000000 1988.471558 -0.000000 -0.000000 -0.000000 1.000000 1.000000 1.000000 1.000000
451.028625 0.000000 1979.182617 -0.000000 -0.000000 -0.000000 1.000000 1.000000 1.000000 1.000000
600.837769 0.000000 2330.501709 -0.000000 -0.000000 -0.000000 1.000000 1.000000 1.000000 1.000000
506.249695 0.000000 2300.434570 -0.000000 -0.000000 -0.000000 1.000000 1.000000 1.000000 1.000000
499.797272 0.000000 2540.142578 -0.000000 -0.000000 -0.000000 1.000000 1.000000 1.000000 1.000000
618.022217 0.000000 2534.760986 -0.000000 -0.000000 -0.000000 1.000000 1.000000 1.000000 1.000000
718.779358 0.000000 2515.436279 -0.000000 -0.000000 -0.000000 1.000000 1.000000 1.000000 1.000000
821.998657 0.000000 2497.420654 -0.000000 -0.000000 -0.000000 1.000000 1.000000 1.000000 1.000000
905.751831 0.000000 2463.001221 -0.000000 -0.000000 -0.000000 1.000000 1.000000 1.000000 1.000000
993.687317 0.000000 2441.076660 -0.000000 -0.000000 -0.000000 1.000000 1.000000 1.000000 1.000000
1350.207520 0.000000 2592.726807 -0.000000 -0.000000 -0.000000 1.000000 1.000000 1.000000 1.000000
1898.733276 0.000000 3128.989746 -0.000000 -0.000000 -0.000000 1.000000 1.000000 1.000000 1.000000
2523.253418 0.000000 2874.347656 -0.000000 -0.000000 -0.000000 1.000000 1.000000 1.000000 1.000000
1340.526733 0.000000 3907.168945 -0.000000 -0.000000 -0.000000 1.000000 1.000000 1.000000 1.000000
1350.562500 0.000000 3954.284912 -0.000000 -0.000000 -0.000000 1.000000 1.000000 1.000000 1.000000
1424.248169 0.000000 3914.124512 -0.000000 -0.000000 -0.000000 1.000000 1.000000 1.000000 1.000000
1347.687012 0.000000 3866.113525 -0.000000 -0.000000 -0.000000 1.000000 1.000000 1.000000 1.000000
6950.485352 0.000000 3367.633301 -0.000000 -0.000000 -0.000000 1.000000 1.000000 1.000000 1.000000
7056.345215 0.000000 3505.931641 -0.000000 -0.000000 -0.000000 1.000000 1.000000 1.000000 1.000000
7162.569824 0.000000 3592.762207 -0.000000 -0.000000 -0.000000 1.000000 1.000000 1.000000 1.000000
7140.918945 0.000000 3639.650635 -0.000000 -0.000000 -0.000000 1.000000 1.000000 1.000000 1.000000
7233.964844 0.000000 3717.744873 -0.000000 -0.000000 -0.000000 1.000000 1.000000 1.000000 1.000000
7285.219238 0.000000 3809.909180 -0.000000 -0.000000 -0.000000 1.000000 1.000000 1.000000 1.000000
7164.979492 0.000000 3930.368896 -0.000000 -0.000000 -0.000000 1.000000 1.000000 1.000000 1.000000
7340.596191 0.000000 3892.486084 -0.000000 -0.000000 -0.000000 1.000000 1.000000 1.000000 1.000000
7445.247559 0.000000 3927.480469 -0.000000 -0.000000 -0.000000 1.000000 1.000000 1.000000 1.000000
7482.092773 0.000000 3809.227295 -0.000000 -0.000000 -0.000000 1.000000 1.000000 1.000000 1.000000
7408.948730 0.000000 3695.927734 -0.000000 -0.000000 -0.000000 1.000000 1.000000 1.000000 1.000000
7367.710449 0.000000 3583.006104 -0.000000 -0.000000 -0.000000 1.000000 1.000000 1.000000 1.000000
7259.681152 0.000000 3480.705811 -0.000000 -0.000000 -0.000000 1.000000 1.000000 1.000000 1.000000
7156.906738 0.000000 3393.081299 -0.000000 -0.000000 -0.000000 1.000000 1.000000 1.000000 1.000000
7045.468750 0.000000 3386.919922 -0.000000 -0.000000 -0.000000 1.000000 1.000000 1.000000 1.000000
6968.867676 0.000000 3316.162842 -0.000000 -0.000000 -0.000000 1.000000 1.000000 1.000000 1.000000
6883.220703 0.000000 3277.279785 -0.000000 -0.000000 -0.000000 1.000000 1.000000 1.000000 1.000000
6769.581543 0.000000 3208.448730 -0.000000 -0.000000 -0.000000 1.000000 1.000000 1.000000 1.000000
6637.884277 0.000000 3202.579590 -0.000000 -0.000000 -0.000000 1.000000 1.000000 1.000000 1.000000
6520.760742 0.000000 3180.119873 -0.000000 -0.000000 -0.000000 1.000000 1.000000 1.000000 1.000000
6344.381348 0.000000 3073.946045 -0.000000 -0.000000 -0.000000 1.000000 1.000000 1.000000 1.000000
6380.671875 0.000000 3175.121094 -0.000000 -0.000000 -0.000000 1.000000 1.000000 1.000000 1.000000
6165.021973 0.000000 3219.636719 -0.000000 -0.000000 -0.000000 1.000000 1.000000 1.000000 1.000000
6285.026855 0.000000 3174.314453 -0.000000 -0.000000 -0.000000 1.000000 1.000000 1.000000 1.000000
6186.010742 0.000000 3354.087646 -0.000000 -0.000000 -0.000000 1.000000 1.000000 1.000000 1.000000
5967.834961 0.000000 3285.909180 -0.000000 -0.000000 -0.000000 1.000000 1.000000 1.000000 1.000000
6102.991699 0.000000 3229.247314 -0.000000 -0.000000 -0.000000 1.000000 1.000000 1.000000 1.000000
6100.531250 0.000000 3348.666016 -0.000000 -0.000000 -0.000000 1.000000 1.000000 1.000000 1.000000
5990.826660 0.000000 3354.402832 -0.000000 -0.000000 -0.000000 1.000000 1.000000 1.000000 1.000000
5893.042969 0.000000 3351.916016 -0.000000 -0.000000 -0.000000 1.000000 1.000000 1.000000 1.000000
5775.192383 0.000000 3306.506348 -0.000000 -0.000000 -0.000000 1.000000 1.000000 1.000000 1.000000
5902.907715 0.000000 3184.653564 -0.000000 -0.000000 -0.000000 1.000000 1.000000 1.000000 1.000000
5811.592773 0.000000 3198.885986 -0.000000 -0.000000 -0.000000 1.000000 1.000000 1.000000 1.000000
5935.865723 0.000000 2965.654053 -0.000000 -0.000000 -0.000000 1.000000 1.000000 1.000000 1.000000
5780.284180 0.000000 3012.607666 -0.000000 -0.000000 -0.000000 1.000000 1.000000 1.000000 1.000000
5718.871094 0.000000 2979.331299 -0.000000 -0.000000 -0.000000 1.000000 1.000000 1.000000 1.000000
5560.945313 0.000000 2976.241699 -0.000000 -0.000000 -0.000000 1.000000 1.000000 1.000000 1.000000
5604.705566 0.000000 2958.218262 -0.000000 -0.000000 -0.000000 1.000000 1.000000 1.000000 1.000000
5695.652344 0.000000 3078.078369 -0.000000 -0.000000 -0.000000 1.000000 1.000000 1.000000 1.000000
5612.306641 0.000000 3070.552979 -0.000000 -0.000000 -0.000000 1.000000 1.000000 1.000000 1.000000
5634.650391 0.000000 3163.153564 -0.000000 -0.000000 -0.000000 1.000000 1.000000 1.000000 1.000000
5523.726563 0.000000 3298.170654 -0.000000 -0.000000 -0.000000 1.000000 1.000000 1.000000 1.000000
5612.534180 0.000000 3296.417236 -0.000000 -0.000000 -0.000000 1.000000 1.000000 1.000000 1.000000
5630.540039 0.000000 3556.178955 -0.000000 -0.000000 -0.000000 1.000000 1.000000 1.000000 1.000000
5500.602539 0.000000 3426.227051 -0.000000 -0.000000 -0.000000 1.000000 1.000000 1.000000 1.000000
5350.819824 0.000000 3260.545410 -0.000000 -0.000000 -0.000000 1.000000 1.000000 1.000000 1.000000
4834.141602 0.000000 1923.002808 -0.000000 -0.000000 -0.000000 1.000000 1.000000 1.000000 1.000000
4275.539063 0.000000 2149.286377 -0.000000 -0.000000 -0.000000 1.000000 1.000000 1.000000 1.000000
4317.740234 0.000000 2201.910889 -0.000000 -0.000000 -0.000000 1.000000 1.000000 1.000000 1.000000
4364.922852 0.000000 2128.609619 -0.000000 -0.000000 -0.000000 1.000000 1.000000 1.000000 1.000000
4446.428711 0.000000 2102.306396 -0.000000 -0.000000 -0.000000 1.000000 1.000000 1.000000 1.000000
4538.501465 0.000000 2055.635010 -0.000000 -0.000000 -0.000000 1.000000 1.000000 1.000000 1.000000
4620.028809 0.000000 2034.490601 -0.000000 -0.000000 -0.000000 1.000000 1.000000 1.000000 1.000000
4708.766602 0.000000 2048.236328 -0.000000 -0.000000 -0.000000 1.000000 1.000000 1.000000 1.000000
4655.674316 0.000000 2082.338135 -0.000000 -0.000000 -0.000000 1.000000 1.000000 1.000000 1.000000
4578.561035 0.000000 2106.785645 -0.000000 -0.000000 -0.000000 1.000000 1.000000 1.000000 1.000000
4441.583496 0.000000 2156.703125 -0.000000 -0.000000 -0.000000 1.000000 1.000000 1.000000 1.000000
4053.080322 0.000000 2456.287598 -0.000000 -0.000000 -0.000000 1.000000 1.000000 1.000000 1.000000
4343.225098 0.000000 2485.432617 -0.000000 -0.000000 -0.000000 1.000000 1.000000 1.000000 1.000000
4688.518555 0.000000 2717.328857 -0.000000 -0.000000 -0.000000 1.000000 1.000000 1.000000 1.000000
4677.504395 0.000000 2651.740723 -0.000000 -0.000000 -0.000000 1.000000 1.000000 1.000000 1.000000
4602.957031 0.000000 2565.312744 -0.000000 -0.000000 -0.000000 1.000000 1.000000 1.000000 1.000000
4537.960938 0.000000 2497.397705 -0.000000 -0.000000 -0.000000 1.000000 1.000000 1.000000 1.000000
4465.723633 0.000000 2479.910889 -0.000000 -0.000000 -0.000000 1.000000 1.000000 1.000000 1.000000
4400.457031 0.000000 2469.157471 -0.000000 -0.000000 -0.000000 1.000000 1.000000 1.000000 1.000000
4276.908203 0.000000 2474.851563 -0.000000 -0.000000 -0.000000 1.000000 1.000000 1.000000 1.000000
4143.245117 0.000000 2426.863770 -0.000000 -0.000000 -0.000000 1.000000 1.000000 1.000000 1.000000
4197.459961 0.000000 2518.402100 -0.000000 -0.000000 -0.000000 1.000000 1.000000 1.000000 1.000000
4093.292969 0.000000 2528.302246 -0.000000 -0.000000 -0.000000 1.000000 1.000000 1.000000 1.000000
3982.627930 0.000000 2576.691895 -0.000000 -0.000000 -0.000000 1.000000 1.000000 1.000000 1.000000
4000.190430 0.000000 2521.494385 -0.000000 -0.000000 -0.000000 1.000000 1.000000 1.000000 1.000000
3830.044922 0.000000 2532.744141 -0.000000 -0.000000 -0.000000 1.000000 1.000000 1.000000 1.000000
3670.418701 0.000000 2500.350586 -0.000000 -0.000000 -0.000000 1.000000 1.000000 1.000000 1.000000
3596.338379 0.000000 2580.593262 -0.000000 -0.000000 -0.000000 1.000000 1.000000 1.000000 1.000000
3661.503906 0.000000 2615.645752 -0.000000 -0.000000 -0.000000 1.000000 1.000000 1.000000 1.000000
3671.077393 0.000000 2698.477539 -0.000000 -0.000000 -0.000000 1.000000 1.000000 1.000000 1.000000
3834.355713 0.000000 2839.352295 -0.000000 -0.000000 -0.000000 1.000000 1.000000 1.000000 1.000000
3644.820068 0.000000 2824.427734 -0.000000 -0.000000 -0.000000 1.000000 1.000000 1.000000 1.000000
3887.822998 0.000000 2834.822021 -0.000000 -0.000000 -0.000000 1.000000 1.000000 1.000000 1.000000
3956.581299 0.000000 2820.253906 -0.000000 -0.000000 -0.000000 1.000000 1.000000 1.000000 1.000000
4075.946045 0.000000 2784.720947 -0.000000 -0.000000 -0.000000 1.000000 1.000000 1.000000 1.000000
3947.089355 0.000000 1136.533569 -0.000000 -0.000000 -0.000000 1.000000 1.000000 1.000000 1.000000
4522.937500 0.000000 659.928589 -0.000000 -0.000000 -0.000000 1.000000 1.000000 1.000000 1.000000
4435.144531 0.000000 730.086792 -0.000000 -0.000000 -0.000000 1.000000 1.000000 1.000000 1.000000
4329.501953 0.000000 806.525146 -0.000000 -0.000000 -0.000000 1.000000 1.000000 1.000000 1.000000
4155.213867 0.000000 904.859375 -0.000000 -0.000000 -0.000000 1.000000 1.000000 1.000000 1.000000
2077.189697 0.000000 2575.120117 -0.000000 -0.000000 -0.000000 1.000000 1.000000 1.000000 1.000000
1484.865479 0.000000 2371.965576 -0.000000 -0.000000 -0.000000 1.000000 1.000000 1.000000 1.000000
1461.790527 0.000000 2110.549805 -0.000000 -0.000000 -0.000000 1.000000 1.000000 1.000000 1.000000
2103.621582 0.000000 3041.536621 -0.000000 -0.000000 -0.000000 1.000000 1.000000 1.000000 1.000000
2354.908203 0.000000 3009.359131 -0.000000 -0.000000 -0.000000 1.000000 1.000000 1.000000 1.000000
2403.689941 0.000000 2736.885742 -0.000000 -0.000000 -0.000000 1.000000 1.000000 1.000000 1.000000
2336.969482 0.000000 2240.685547 -0.000000 -0.000000 -0.000000 1.000000 1.000000 1.000000 1.000000
2409.809082 0.000000 2048.655029 -0.000000 -0.000000 -0.000000 1.000000 1.000000 1.000000 1.000000
1667.144897 0.000000 2535.211914 -0.000000 -0.000000 -0.000000 1.000000 1.000000 1.000000 1.000000
1779.102295 0.000000 2375.735352 -0.000000 -0.000000 -0.000000 1.000000 1.000000 1.000000 1.000000
1981.731323 0.000000 2069.711182 -0.000000 -0.000000 -0.000000 1.000000 1.000000 1.000000 1.000000
1960.953857 0.000000 2199.157959 -0.000000 -0.000000 -0.000000 1.000000 1.000000 1.000000 1.000000
1957.771240 0.000000 2038.216431 -0.000000 -0.000000 -0.000000 1.000000 1.000000 1.000000 1.000000
1993.257935 0.000000 2145.664795 -0.000000 -0.000000 -0.000000 1.000000 1.000000 1.000000 1.000000
1829.440796 0.000000 2326.635010 -0.000000 -0.000000 -0.000000 1.000000 1.000000 1.000000 1.000000
1742.676758 0.000000 2842.157715 -0.000000 -0.000000 -0.000000 1.000000 1.000000 1.000000 1.000000
1351.862183 0.000000 2704.767334 -0.000000 -0.000000 -0.000000 1.000000 1.000000 1.000000 1.000000
1443.939819 0.000000 2746.545898 -0.000000 -0.000000 -0.000000 1.000000 1.000000 1.000000 1.000000
1545.136108 0.000000 2738.440430 -0.000000 -0.000000 -0.000000 1.000000 1.000000 1.000000 1.000000
1505.940186 0.000000 2603.122559 -0.000000 -0.000000 -0.000000 1.000000 1.000000 1.000000 1.000000
1621.905884 0.000000 2558.566895 -0.000000 -0.000000 -0.000000 1.000000 1.000000 1.000000 1.000000
1641.515137 0.000000 2806.968506 -0.000000 -0.000000 -0.000000 1.000000 1.000000 1.000000 1.000000
"}
object={
	name="amb_3D_ocean_emitter"
	clamp_to_water_level=yes
	render_under_water=no
	generated_content=no
	layer="Audio_layer"
	entity="map_ambient_3D_ocean"
	count=103
	transform="7853.268066 0.000000 2244.054688 -0.000000 -0.000000 -0.000000 1.000000 1.000000 1.000000 1.000000
8057.759766 0.000000 1717.534424 -0.000000 -0.000000 -0.000000 1.000000 1.000000 1.000000 1.000000
3612.064697 0.000000 1212.135498 -0.000000 -0.000000 -0.000000 1.000000 1.000000 1.000000 1.000000
3280.295166 0.000000 1796.531128 -0.000000 -0.000000 -0.000000 1.000000 1.000000 1.000000 1.000000
3257.958252 0.000000 2044.459961 -0.000000 -0.000000 -0.000000 1.000000 1.000000 1.000000 1.000000
3040.707031 0.000000 1944.182373 -0.000000 -0.000000 -0.000000 1.000000 1.000000 1.000000 1.000000
2939.084961 0.000000 1564.686279 -0.000000 -0.000000 -0.000000 1.000000 1.000000 1.000000 1.000000
2901.683594 0.000000 1789.286255 -0.000000 -0.000000 -0.000000 1.000000 1.000000 1.000000 1.000000
2496.523193 0.000000 1719.726929 -0.000000 -0.000000 -0.000000 1.000000 1.000000 1.000000 1.000000
2289.853271 0.000000 1807.100342 -0.000000 -0.000000 -0.000000 1.000000 1.000000 1.000000 1.000000
2308.584229 0.000000 1694.704346 -0.000000 -0.000000 -0.000000 1.000000 1.000000 1.000000 1.000000
1997.979614 0.000000 1578.975342 -0.000000 -0.000000 -0.000000 1.000000 1.000000 1.000000 1.000000
1908.833496 0.000000 1844.674561 -0.000000 -0.000000 -0.000000 1.000000 1.000000 1.000000 1.000000
110.478462 0.000000 2165.591797 -0.000000 -0.000000 -0.000000 1.000000 1.000000 1.000000 1.000000
697.656921 0.000000 2832.233398 -0.000000 -0.000000 -0.000000 1.000000 1.000000 1.000000 1.000000
516.396179 0.000000 2866.105957 -0.000000 -0.000000 -0.000000 1.000000 1.000000 1.000000 1.000000
221.509323 0.000000 2938.853027 -0.000000 -0.000000 -0.000000 1.000000 1.000000 1.000000 1.000000
268.904236 0.000000 3159.021973 -0.000000 -0.000000 -0.000000 1.000000 1.000000 1.000000 1.000000
589.781677 0.000000 3266.243896 -0.000000 -0.000000 -0.000000 1.000000 1.000000 1.000000 1.000000
1369.104492 0.000000 3493.574463 -0.000000 -0.000000 -0.000000 1.000000 1.000000 1.000000 1.000000
1490.651611 0.000000 3806.522217 -0.000000 -0.000000 -0.000000 1.000000 1.000000 1.000000 1.000000
1146.880371 0.000000 3374.006348 -0.000000 -0.000000 -0.000000 1.000000 1.000000 1.000000 1.000000
1280.860840 0.000000 3738.183105 -0.000000 -0.000000 -0.000000 1.000000 1.000000 1.000000 1.000000
763.734863 0.000000 3933.630615 -0.000000 -0.000000 -0.000000 1.000000 1.000000 1.000000 1.000000
1062.466553 0.000000 3901.301514 -0.000000 -0.000000 -0.000000 1.000000 1.000000 1.000000 1.000000
4022.152832 0.000000 3275.234863 -0.000000 -0.000000 -0.000000 1.000000 1.000000 1.000000 1.000000
4593.818848 0.000000 3439.737305 -0.000000 -0.000000 -0.000000 1.000000 1.000000 1.000000 1.000000
2212.489502 0.000000 3830.413330 -0.000000 -0.000000 -0.000000 1.000000 1.000000 1.000000 1.000000
2053.383301 0.000000 3779.226563 -0.000000 -0.000000 -0.000000 1.000000 1.000000 1.000000 1.000000
1693.431152 0.000000 3528.169189 -0.000000 -0.000000 -0.000000 1.000000 1.000000 1.000000 1.000000
323.400940 0.000000 3381.573730 -0.000000 -0.000000 -0.000000 1.000000 1.000000 1.000000 1.000000
460.014008 0.000000 3699.975830 -0.000000 -0.000000 -0.000000 1.000000 1.000000 1.000000 1.000000
4110.772949 0.000000 3005.615234 -0.000000 -0.000000 -0.000000 1.000000 1.000000 1.000000 1.000000
4307.064453 0.000000 2670.888184 -0.000000 -0.000000 -0.000000 1.000000 1.000000 1.000000 1.000000
6461.099121 0.000000 1988.659668 -0.000000 -0.000000 -0.000000 1.000000 1.000000 1.000000 1.000000
7712.674805 0.000000 3032.206299 -0.000000 -0.000000 -0.000000 1.000000 1.000000 1.000000 1.000000
7686.831055 0.000000 2636.140625 -0.000000 -0.000000 -0.000000 1.000000 1.000000 1.000000 1.000000
7577.278320 0.000000 2222.929199 -0.000000 -0.000000 -0.000000 1.000000 1.000000 1.000000 1.000000
7780.483398 0.000000 1880.113525 -0.000000 -0.000000 -0.000000 1.000000 1.000000 1.000000 1.000000
7767.582031 0.000000 1515.902344 -0.000000 -0.000000 -0.000000 1.000000 1.000000 1.000000 1.000000
7599.215332 0.000000 1217.884399 -0.000000 -0.000000 -0.000000 1.000000 1.000000 1.000000 1.000000
7283.696777 0.000000 1128.529663 -0.000000 -0.000000 -0.000000 1.000000 1.000000 1.000000 1.000000
6768.747070 0.000000 1738.030884 -0.000000 -0.000000 -0.000000 1.000000 1.000000 1.000000 1.000000
7005.311035 0.000000 1405.009155 -0.000000 -0.000000 -0.000000 1.000000 1.000000 1.000000 1.000000
6929.407227 0.000000 1041.364136 -0.000000 -0.000000 -0.000000 1.000000 1.000000 1.000000 1.000000
6540.499023 0.000000 974.749817 -0.000000 -0.000000 -0.000000 1.000000 1.000000 1.000000 1.000000
6627.063965 0.000000 1283.364990 -0.000000 -0.000000 -0.000000 1.000000 1.000000 1.000000 1.000000
6434.167969 0.000000 1638.932007 -0.000000 -0.000000 -0.000000 1.000000 1.000000 1.000000 1.000000
6062.019043 0.000000 1846.708740 -0.000000 -0.000000 -0.000000 1.000000 1.000000 1.000000 1.000000
6222.500000 0.000000 1326.512207 -0.000000 -0.000000 -0.000000 1.000000 1.000000 1.000000 1.000000
5874.886719 0.000000 1511.103882 -0.000000 -0.000000 -0.000000 1.000000 1.000000 1.000000 1.000000
5635.934082 0.000000 1862.844971 -0.000000 -0.000000 -0.000000 1.000000 1.000000 1.000000 1.000000
6193.817383 0.000000 886.885376 -0.000000 -0.000000 -0.000000 1.000000 1.000000 1.000000 1.000000
5818.934082 0.000000 993.697327 -0.000000 -0.000000 -0.000000 1.000000 1.000000 1.000000 1.000000
5583.016113 0.000000 1229.435425 -0.000000 -0.000000 -0.000000 1.000000 1.000000 1.000000 1.000000
5431.176758 0.000000 854.539185 -0.000000 -0.000000 -0.000000 1.000000 1.000000 1.000000 1.000000
5635.118652 0.000000 598.215332 -0.000000 -0.000000 -0.000000 1.000000 1.000000 1.000000 1.000000
5165.348633 0.000000 548.219116 -0.000000 -0.000000 -0.000000 1.000000 1.000000 1.000000 1.000000
4815.397461 0.000000 294.899109 -0.000000 -0.000000 -0.000000 1.000000 1.000000 1.000000 1.000000
3783.859375 0.000000 1071.456909 -0.000000 -0.000000 -0.000000 1.000000 1.000000 1.000000 1.000000
4112.930176 0.000000 727.699463 -0.000000 -0.000000 -0.000000 1.000000 1.000000 1.000000 1.000000
4433.277832 0.000000 462.125732 -0.000000 -0.000000 -0.000000 1.000000 1.000000 1.000000 1.000000
1900.191772 0.000000 2502.632080 -0.000000 -0.000000 -0.000000 1.000000 1.000000 1.000000 1.000000
290.030792 0.000000 2779.231934 -0.000000 -0.000000 -0.000000 1.000000 1.000000 1.000000 1.000000
2545.126953 0.000000 2079.654785 -0.000000 -0.000000 -0.000000 1.000000 1.000000 1.000000 1.000000
2421.288574 0.000000 2272.559570 -0.000000 -0.000000 -0.000000 1.000000 1.000000 1.000000 1.000000
2500.603027 0.000000 2317.858398 -0.000000 -0.000000 -0.000000 1.000000 1.000000 1.000000 1.000000
898.083679 0.000000 3126.998047 -0.000000 -0.000000 -0.000000 1.000000 1.000000 1.000000 1.000000
538.689148 0.000000 3134.994141 -0.000000 -0.000000 -0.000000 1.000000 1.000000 1.000000 1.000000
1964.437500 0.000000 3634.900635 -0.000000 -0.000000 -0.000000 1.000000 1.000000 1.000000 1.000000
1180.149658 0.000000 3589.823975 -0.000000 -0.000000 -0.000000 1.000000 1.000000 1.000000 1.000000
179.300751 0.000000 2431.816406 -0.000000 -0.000000 -0.000000 1.000000 1.000000 1.000000 1.000000
210.030060 0.000000 1909.494019 -0.000000 -0.000000 -0.000000 1.000000 1.000000 1.000000 1.000000
3137.364258 0.000000 1832.290527 -0.000000 -0.000000 -0.000000 1.000000 1.000000 1.000000 1.000000
2516.868408 0.000000 1979.538330 -0.000000 -0.000000 -0.000000 1.000000 1.000000 1.000000 1.000000
2726.209717 0.000000 1748.154419 -0.000000 -0.000000 -0.000000 1.000000 1.000000 1.000000 1.000000
2173.911133 0.000000 1569.406982 -0.000000 -0.000000 -0.000000 1.000000 1.000000 1.000000 1.000000
1820.303223 0.000000 1687.650513 -0.000000 -0.000000 -0.000000 1.000000 1.000000 1.000000 1.000000
767.013855 0.000000 2640.998535 -0.000000 -0.000000 -0.000000 1.000000 1.000000 1.000000 1.000000
572.666382 0.000000 1919.341675 -0.000000 -0.000000 -0.000000 1.000000 1.000000 1.000000 1.000000
913.816101 0.000000 2138.521484 -0.000000 -0.000000 -0.000000 1.000000 1.000000 1.000000 1.000000
759.810242 0.000000 1933.603394 -0.000000 -0.000000 -0.000000 1.000000 1.000000 1.000000 1.000000
1608.047974 0.000000 2082.754395 -0.000000 -0.000000 -0.000000 1.000000 1.000000 1.000000 1.000000
1372.264404 0.000000 2079.937500 -0.000000 -0.000000 -0.000000 1.000000 1.000000 1.000000 1.000000
1413.165039 0.000000 2431.961182 -0.000000 -0.000000 -0.000000 1.000000 1.000000 1.000000 1.000000
932.283203 0.000000 1980.910400 -0.000000 -0.000000 -0.000000 1.000000 1.000000 1.000000 1.000000
1124.890625 0.000000 2024.184326 -0.000000 -0.000000 -0.000000 1.000000 1.000000 1.000000 1.000000
587.849243 0.000000 2721.634033 -0.000000 -0.000000 -0.000000 1.000000 1.000000 1.000000 1.000000
987.687500 0.000000 2232.376709 -0.000000 -0.000000 -0.000000 1.000000 1.000000 1.000000 1.000000
1182.710938 0.000000 2435.768066 -0.000000 -0.000000 -0.000000 1.000000 1.000000 1.000000 1.000000
1638.552979 0.000000 2045.484253 -0.000000 -0.000000 -0.000000 1.000000 1.000000 1.000000 1.000000
1243.778076 0.000000 2158.683105 -0.000000 -0.000000 -0.000000 1.000000 1.000000 1.000000 1.000000
1192.641357 0.000000 2248.853271 -0.000000 -0.000000 -0.000000 1.000000 1.000000 1.000000 1.000000
1130.851196 0.000000 2329.423096 -0.000000 -0.000000 -0.000000 1.000000 1.000000 1.000000 1.000000
1041.946777 0.000000 3135.631836 -0.000000 -0.000000 -0.000000 1.000000 1.000000 1.000000 1.000000
1344.320068 0.000000 2167.598877 -0.000000 -0.000000 -0.000000 1.000000 1.000000 1.000000 1.000000
1408.909912 0.000000 1989.994873 -0.000000 -0.000000 -0.000000 1.000000 1.000000 1.000000 1.000000
1482.220825 0.000000 2483.032227 -0.000000 -0.000000 -0.000000 1.000000 1.000000 1.000000 1.000000
1590.494141 0.000000 2001.486572 -0.000000 -0.000000 -0.000000 1.000000 1.000000 1.000000 1.000000
1611.195190 0.000000 2282.462891 -0.000000 -0.000000 -0.000000 1.000000 1.000000 1.000000 1.000000
1834.577026 0.000000 2141.330322 -0.000000 -0.000000 -0.000000 1.000000 1.000000 1.000000 1.000000
2122.697510 0.000000 1840.340820 -0.000000 -0.000000 -0.000000 1.000000 1.000000 1.000000 1.000000
2061.852783 0.000000 2185.805176 -0.000000 -0.000000 -0.000000 1.000000 1.000000 1.000000 1.000000
"}
object={
	name="amb_3D_river_emitter"
	clamp_to_water_level=no
	render_under_water=no
	generated_content=no
	layer="Audio_layer"
	entity="map_ambient_3D_river"
	count=182
	transform="4554.490234 0.000000 2085.111084 -0.000000 -0.000000 -0.000000 1.000000 1.000000 1.000000 1.000000
4795.251953 0.000000 2009.738647 -0.000000 -0.000000 -0.000000 1.000000 1.000000 1.000000 1.000000
4683.991699 0.000000 1999.406006 -0.000000 -0.000000 -0.000000 1.000000 1.000000 1.000000 1.000000
4547.211426 0.000000 1974.132935 -0.000000 -0.000000 -0.000000 1.000000 1.000000 1.000000 1.000000
3223.703857 0.000000 2988.307129 -0.000000 -0.000000 -0.000000 1.000000 1.000000 1.000000 1.000000
3604.773926 0.000000 2844.288574 -0.000000 -0.000000 -0.000000 1.000000 1.000000 1.000000 1.000000
3810.069336 0.000000 2766.718750 -0.000000 -0.000000 -0.000000 1.000000 1.000000 1.000000 1.000000
3900.144531 0.000000 2655.780762 -0.000000 -0.000000 -0.000000 1.000000 1.000000 1.000000 1.000000
3848.976074 0.000000 2611.698975 -0.000000 -0.000000 -0.000000 1.000000 1.000000 1.000000 1.000000
3761.436768 0.000000 2525.931885 -0.000000 -0.000000 -0.000000 1.000000 1.000000 1.000000 1.000000
3328.176514 0.000000 2165.215332 -0.000000 -0.000000 -0.000000 1.000000 1.000000 1.000000 1.000000
3378.274414 0.000000 2189.724609 -0.000000 -0.000000 -0.000000 1.000000 1.000000 1.000000 1.000000
3451.871338 0.000000 1804.521362 -0.000000 -0.000000 -0.000000 1.000000 1.000000 1.000000 1.000000
3477.697510 0.000000 1694.992676 -0.000000 -0.000000 -0.000000 1.000000 1.000000 1.000000 1.000000
3884.823975 0.000000 349.891571 -0.000000 -0.000000 -0.000000 1.000000 1.000000 1.000000 1.000000
3995.665039 0.000000 166.659897 -0.000000 -0.000000 -0.000000 1.000000 1.000000 1.000000 1.000000
3758.553467 0.000000 113.100479 -0.000000 -0.000000 -0.000000 1.000000 1.000000 1.000000 1.000000
3613.847900 0.000000 276.541229 -0.000000 -0.000000 -0.000000 1.000000 1.000000 1.000000 1.000000
3637.821289 0.000000 352.875000 -0.000000 -0.000000 -0.000000 1.000000 1.000000 1.000000 1.000000
3689.481445 0.000000 469.405945 -0.000000 -0.000000 -0.000000 1.000000 1.000000 1.000000 1.000000
520.468689 0.000000 1668.260864 -0.000000 -0.000000 -0.000000 1.000000 1.000000 1.000000 1.000000
583.412781 0.000000 1768.150269 -0.000000 -0.000000 -0.000000 1.000000 1.000000 1.000000 1.000000
450.462341 0.000000 1766.981201 -0.000000 -0.000000 -0.000000 1.000000 1.000000 1.000000 1.000000
883.075500 0.000000 2887.413086 -0.000000 -0.000000 -0.000000 1.000000 1.000000 1.000000 1.000000
1754.182251 0.000000 3345.892578 -0.000000 -0.000000 -0.000000 1.000000 1.000000 1.000000 1.000000
1898.529297 0.000000 3213.622803 -0.000000 -0.000000 -0.000000 1.000000 1.000000 1.000000 1.000000
1688.265503 0.000000 3993.590576 -0.000000 -0.000000 -0.000000 1.000000 1.000000 1.000000 1.000000
1689.963623 0.000000 3890.937988 -0.000000 -0.000000 -0.000000 1.000000 1.000000 1.000000 1.000000
1745.149902 0.000000 3828.680664 -0.000000 -0.000000 -0.000000 1.000000 1.000000 1.000000 1.000000
1460.509033 0.000000 3686.197754 -0.000000 -0.000000 -0.000000 1.000000 1.000000 1.000000 1.000000
1478.258667 0.000000 3456.607178 -0.000000 -0.000000 -0.000000 1.000000 1.000000 1.000000 1.000000
1442.076538 0.000000 3374.870361 -0.000000 -0.000000 -0.000000 1.000000 1.000000 1.000000 1.000000
1498.217773 0.000000 3261.772217 -0.000000 -0.000000 -0.000000 1.000000 1.000000 1.000000 1.000000
1584.625610 0.000000 2970.791992 -0.000000 -0.000000 -0.000000 1.000000 1.000000 1.000000 1.000000
1936.748291 0.000000 2698.160645 -0.000000 -0.000000 -0.000000 1.000000 1.000000 1.000000 1.000000
2096.606445 0.000000 2715.453857 -0.000000 -0.000000 -0.000000 1.000000 1.000000 1.000000 1.000000
2166.158936 0.000000 2787.758301 -0.000000 -0.000000 -0.000000 1.000000 1.000000 1.000000 1.000000
2316.539063 0.000000 2658.058838 -0.000000 -0.000000 -0.000000 1.000000 1.000000 1.000000 1.000000
2427.675781 0.000000 2595.893066 -0.000000 -0.000000 -0.000000 1.000000 1.000000 1.000000 1.000000
2490.103760 0.000000 2597.751709 -0.000000 -0.000000 -0.000000 1.000000 1.000000 1.000000 1.000000
2649.419189 0.000000 2432.870117 -0.000000 -0.000000 -0.000000 1.000000 1.000000 1.000000 1.000000
2930.432129 0.000000 2179.038574 -0.000000 -0.000000 -0.000000 1.000000 1.000000 1.000000 1.000000
2881.270752 0.000000 2162.649414 -0.000000 -0.000000 -0.000000 1.000000 1.000000 1.000000 1.000000
3051.452148 0.000000 2161.127197 -0.000000 -0.000000 -0.000000 1.000000 1.000000 1.000000 1.000000
3155.072754 0.000000 2271.458252 -0.000000 -0.000000 -0.000000 1.000000 1.000000 1.000000 1.000000
2792.478516 0.000000 2336.615479 -0.000000 -0.000000 -0.000000 1.000000 1.000000 1.000000 1.000000
3320.531006 0.000000 2543.846680 -0.000000 -0.000000 -0.000000 1.000000 1.000000 1.000000 1.000000
3580.344971 0.000000 2503.559326 -0.000000 -0.000000 -0.000000 1.000000 1.000000 1.000000 1.000000
3516.988770 0.000000 2383.562012 -0.000000 -0.000000 -0.000000 1.000000 1.000000 1.000000 1.000000
3511.127197 0.000000 2209.639893 -0.000000 -0.000000 -0.000000 1.000000 1.000000 1.000000 1.000000
3733.667480 0.000000 2105.167236 -0.000000 -0.000000 -0.000000 1.000000 1.000000 1.000000 1.000000
3877.995605 0.000000 2076.957031 -0.000000 -0.000000 -0.000000 1.000000 1.000000 1.000000 1.000000
4146.359863 0.000000 1933.487915 -0.000000 -0.000000 -0.000000 1.000000 1.000000 1.000000 1.000000
4288.361816 0.000000 1906.263428 -0.000000 -0.000000 -0.000000 1.000000 1.000000 1.000000 1.000000
4124.015625 0.000000 2027.906860 -0.000000 -0.000000 -0.000000 1.000000 1.000000 1.000000 1.000000
4393.069824 0.000000 2010.021606 -0.000000 -0.000000 -0.000000 1.000000 1.000000 1.000000 1.000000
4469.421875 0.000000 2371.432129 -0.000000 -0.000000 -0.000000 1.000000 1.000000 1.000000 1.000000
4223.885742 0.000000 2372.178955 -0.000000 -0.000000 -0.000000 1.000000 1.000000 1.000000 1.000000
4286.264648 0.000000 2464.698486 -0.000000 -0.000000 -0.000000 1.000000 1.000000 1.000000 1.000000
4157.776855 0.000000 2481.217285 -0.000000 -0.000000 -0.000000 1.000000 1.000000 1.000000 1.000000
4102.470703 0.000000 2558.099854 -0.000000 -0.000000 -0.000000 1.000000 1.000000 1.000000 1.000000
4061.364746 0.000000 2631.878906 -0.000000 -0.000000 -0.000000 1.000000 1.000000 1.000000 1.000000
4138.070313 0.000000 2710.180908 -0.000000 -0.000000 -0.000000 1.000000 1.000000 1.000000 1.000000
3963.681885 0.000000 2737.444336 -0.000000 -0.000000 -0.000000 1.000000 1.000000 1.000000 1.000000
3683.256836 0.000000 2997.429443 -0.000000 -0.000000 -0.000000 1.000000 1.000000 1.000000 1.000000
3757.598877 0.000000 2914.393311 -0.000000 -0.000000 -0.000000 1.000000 1.000000 1.000000 1.000000
3884.270508 0.000000 2992.845215 -0.000000 -0.000000 -0.000000 1.000000 1.000000 1.000000 1.000000
3400.850830 0.000000 2944.808350 -0.000000 -0.000000 -0.000000 1.000000 1.000000 1.000000 1.000000
3364.160156 0.000000 3345.131592 -0.000000 -0.000000 -0.000000 1.000000 1.000000 1.000000 1.000000
2890.398682 0.000000 3171.410400 -0.000000 -0.000000 -0.000000 1.000000 1.000000 1.000000 1.000000
2629.607910 0.000000 3031.987061 -0.000000 -0.000000 -0.000000 1.000000 1.000000 1.000000 1.000000
2435.540527 0.000000 3061.053711 -0.000000 -0.000000 -0.000000 1.000000 1.000000 1.000000 1.000000
2384.395996 0.000000 2892.087158 -0.000000 -0.000000 -0.000000 1.000000 1.000000 1.000000 1.000000
2504.280518 0.000000 2810.640137 -0.000000 -0.000000 -0.000000 1.000000 1.000000 1.000000 1.000000
2661.962402 0.000000 2782.533203 -0.000000 -0.000000 -0.000000 1.000000 1.000000 1.000000 1.000000
2671.764648 0.000000 2720.178955 -0.000000 -0.000000 -0.000000 1.000000 1.000000 1.000000 1.000000
2609.519287 0.000000 2649.380615 -0.000000 -0.000000 -0.000000 1.000000 1.000000 1.000000 1.000000
2113.759766 0.000000 2519.147217 -0.000000 -0.000000 -0.000000 1.000000 1.000000 1.000000 1.000000
2069.958984 0.000000 2669.469238 -0.000000 -0.000000 -0.000000 1.000000 1.000000 1.000000 1.000000
2198.017822 0.000000 2662.936768 -0.000000 -0.000000 -0.000000 1.000000 1.000000 1.000000 1.000000
2086.194580 0.000000 2786.571777 -0.000000 -0.000000 -0.000000 1.000000 1.000000 1.000000 1.000000
2076.706787 0.000000 2998.832275 -0.000000 -0.000000 -0.000000 1.000000 1.000000 1.000000 1.000000
2022.771484 0.000000 2909.748047 -0.000000 -0.000000 -0.000000 1.000000 1.000000 1.000000 1.000000
1951.598022 0.000000 2940.117676 -0.000000 -0.000000 -0.000000 1.000000 1.000000 1.000000 1.000000
1425.918945 0.000000 2874.071777 -0.000000 -0.000000 -0.000000 1.000000 1.000000 1.000000 1.000000
1064.536499 0.000000 2627.888184 -0.000000 -0.000000 -0.000000 1.000000 1.000000 1.000000 1.000000
1002.310913 0.000000 2443.890381 -0.000000 -0.000000 -0.000000 1.000000 1.000000 1.000000 1.000000
895.282288 0.000000 2348.961914 -0.000000 -0.000000 -0.000000 1.000000 1.000000 1.000000 1.000000
718.100281 0.000000 2390.220215 -0.000000 -0.000000 -0.000000 1.000000 1.000000 1.000000 1.000000
648.756653 0.000000 2090.311279 -0.000000 -0.000000 -0.000000 1.000000 1.000000 1.000000 1.000000
530.757019 0.000000 2089.150879 -0.000000 -0.000000 -0.000000 1.000000 1.000000 1.000000 1.000000
417.557953 0.000000 2053.004639 -0.000000 -0.000000 -0.000000 1.000000 1.000000 1.000000 1.000000
307.730133 0.000000 2096.163574 -0.000000 -0.000000 -0.000000 1.000000 1.000000 1.000000 1.000000
514.011536 0.000000 2220.986328 -0.000000 -0.000000 -0.000000 1.000000 1.000000 1.000000 1.000000
382.416016 0.000000 2404.819824 -0.000000 -0.000000 -0.000000 1.000000 1.000000 1.000000 1.000000
517.384827 0.000000 2476.847412 -0.000000 -0.000000 -0.000000 1.000000 1.000000 1.000000 1.000000
659.653687 0.000000 2505.806885 -0.000000 -0.000000 -0.000000 1.000000 1.000000 1.000000 1.000000
958.877563 0.000000 2584.867920 -0.000000 -0.000000 -0.000000 1.000000 1.000000 1.000000 1.000000
868.479248 0.000000 2675.410400 -0.000000 -0.000000 -0.000000 1.000000 1.000000 1.000000 1.000000
1205.166016 0.000000 2556.534912 -0.000000 -0.000000 -0.000000 1.000000 1.000000 1.000000 1.000000
1317.792603 0.000000 2773.646240 -0.000000 -0.000000 -0.000000 1.000000 1.000000 1.000000 1.000000
1215.720825 0.000000 2719.674316 -0.000000 -0.000000 -0.000000 1.000000 1.000000 1.000000 1.000000
1146.985962 0.000000 2858.337158 -0.000000 -0.000000 -0.000000 1.000000 1.000000 1.000000 1.000000
1004.566711 0.000000 3059.449219 -0.000000 -0.000000 -0.000000 1.000000 1.000000 1.000000 1.000000
1064.479126 0.000000 3016.875977 -0.000000 -0.000000 -0.000000 1.000000 1.000000 1.000000 1.000000
1280.344116 0.000000 2972.068848 -0.000000 -0.000000 -0.000000 1.000000 1.000000 1.000000 1.000000
1218.513184 0.000000 3048.218750 -0.000000 -0.000000 -0.000000 1.000000 1.000000 1.000000 1.000000
1387.907715 0.000000 3119.699463 -0.000000 -0.000000 -0.000000 1.000000 1.000000 1.000000 1.000000
1536.610596 0.000000 3079.565186 -0.000000 -0.000000 -0.000000 1.000000 1.000000 1.000000 1.000000
1479.676636 0.000000 3001.918457 -0.000000 -0.000000 -0.000000 1.000000 1.000000 1.000000 1.000000
7185.326660 0.000000 2374.842529 -0.000000 -0.000000 -0.000000 1.000000 1.000000 1.000000 1.000000
7173.754883 0.000000 2423.715820 -0.000000 -0.000000 -0.000000 1.000000 1.000000 1.000000 1.000000
6971.929688 0.000000 2609.511230 -0.000000 -0.000000 -0.000000 1.000000 1.000000 1.000000 1.000000
7253.718750 0.000000 2751.361816 -0.000000 -0.000000 -0.000000 1.000000 1.000000 1.000000 1.000000
1481.855347 0.000000 3608.572998 -0.000000 -0.000000 -0.000000 1.000000 1.000000 1.000000 1.000000
1635.613159 0.000000 3259.629883 -0.000000 -0.000000 -0.000000 1.000000 1.000000 1.000000 1.000000
1787.559814 0.000000 3082.188721 -0.000000 -0.000000 -0.000000 1.000000 1.000000 1.000000 1.000000
1737.369263 0.000000 2960.765137 -0.000000 -0.000000 -0.000000 1.000000 1.000000 1.000000 1.000000
1960.042969 0.000000 2773.471436 -0.000000 -0.000000 -0.000000 1.000000 1.000000 1.000000 1.000000
2127.073486 0.000000 2661.837402 -0.000000 -0.000000 -0.000000 1.000000 1.000000 1.000000 1.000000
2201.423096 0.000000 2944.797119 -0.000000 -0.000000 -0.000000 1.000000 1.000000 1.000000 1.000000
2703.347900 0.000000 3314.858398 -0.000000 -0.000000 -0.000000 1.000000 1.000000 1.000000 1.000000
3045.359375 0.000000 3064.318359 -0.000000 -0.000000 -0.000000 1.000000 1.000000 1.000000 1.000000
3171.718506 0.000000 3229.122314 -0.000000 -0.000000 -0.000000 1.000000 1.000000 1.000000 1.000000
3398.066650 0.000000 3168.301270 -0.000000 -0.000000 -0.000000 1.000000 1.000000 1.000000 1.000000
3230.479980 0.000000 3429.328125 -0.000000 -0.000000 -0.000000 1.000000 1.000000 1.000000 1.000000
3590.920410 0.000000 3317.821289 -0.000000 -0.000000 -0.000000 1.000000 1.000000 1.000000 1.000000
3517.827393 0.000000 3307.857178 -0.000000 -0.000000 -0.000000 1.000000 1.000000 1.000000 1.000000
2210.424072 0.000000 3190.306885 -0.000000 -0.000000 -0.000000 1.000000 1.000000 1.000000 1.000000
1978.067505 0.000000 3383.618652 -0.000000 -0.000000 -0.000000 1.000000 1.000000 1.000000 1.000000
2009.804932 0.000000 3459.517090 -0.000000 -0.000000 -0.000000 1.000000 1.000000 1.000000 1.000000
2174.841553 0.000000 3534.620605 -0.000000 -0.000000 -0.000000 1.000000 1.000000 1.000000 1.000000
2281.129639 0.000000 3575.744873 -0.000000 -0.000000 -0.000000 1.000000 1.000000 1.000000 1.000000
2237.306885 0.000000 3417.089111 -0.000000 -0.000000 -0.000000 1.000000 1.000000 1.000000 1.000000
2181.343994 0.000000 3416.182129 -0.000000 -0.000000 -0.000000 1.000000 1.000000 1.000000 1.000000
2145.854004 0.000000 3347.975342 -0.000000 -0.000000 -0.000000 1.000000 1.000000 1.000000 1.000000
3586.877441 0.000000 613.883240 -0.000000 -0.000000 -0.000000 1.000000 1.000000 1.000000 1.000000
3430.123535 0.000000 439.051697 -0.000000 -0.000000 -0.000000 1.000000 1.000000 1.000000 1.000000
3375.416260 0.000000 479.993103 -0.000000 -0.000000 -0.000000 1.000000 1.000000 1.000000 1.000000
3344.985107 0.000000 604.770081 -0.000000 -0.000000 -0.000000 1.000000 1.000000 1.000000 1.000000
3401.748779 0.000000 839.069458 -0.000000 -0.000000 -0.000000 1.000000 1.000000 1.000000 1.000000
3465.868164 0.000000 916.684021 -0.000000 -0.000000 -0.000000 1.000000 1.000000 1.000000 1.000000
3436.792725 0.000000 1047.193359 -0.000000 -0.000000 -0.000000 1.000000 1.000000 1.000000 1.000000
3387.109863 0.000000 1158.746338 -0.000000 -0.000000 -0.000000 1.000000 1.000000 1.000000 1.000000
3305.169678 0.000000 1186.899536 -0.000000 -0.000000 -0.000000 1.000000 1.000000 1.000000 1.000000
3226.300781 0.000000 1241.714233 -0.000000 -0.000000 -0.000000 1.000000 1.000000 1.000000 1.000000
3192.603760 0.000000 1304.400757 -0.000000 -0.000000 -0.000000 1.000000 1.000000 1.000000 1.000000
3199.238281 0.000000 1405.565552 -0.000000 -0.000000 -0.000000 1.000000 1.000000 1.000000 1.000000
3189.682129 0.000000 1478.339478 -0.000000 -0.000000 -0.000000 1.000000 1.000000 1.000000 1.000000
3223.705566 0.000000 1571.018311 -0.000000 -0.000000 -0.000000 1.000000 1.000000 1.000000 1.000000
3160.570557 0.000000 1525.586792 -0.000000 -0.000000 -0.000000 1.000000 1.000000 1.000000 1.000000
4038.082275 0.000000 2100.892822 -0.000000 -0.000000 -0.000000 1.000000 1.000000 1.000000 1.000000
4227.693848 0.000000 1993.426025 -0.000000 -0.000000 -0.000000 1.000000 1.000000 1.000000 1.000000
2058.692871 0.000000 2580.440674 -0.000000 -0.000000 -0.000000 1.000000 1.000000 1.000000 1.000000
1756.928711 0.000000 2696.075684 -0.000000 -0.000000 -0.000000 1.000000 1.000000 1.000000 1.000000
1637.406616 0.000000 2852.440186 -0.000000 -0.000000 -0.000000 1.000000 1.000000 1.000000 1.000000
1678.410889 0.000000 2757.828369 -0.000000 -0.000000 -0.000000 1.000000 1.000000 1.000000 1.000000
2466.134277 0.000000 2349.263184 -0.000000 -0.000000 -0.000000 1.000000 1.000000 1.000000 1.000000
2466.462891 0.000000 2396.814697 -0.000000 -0.000000 -0.000000 1.000000 1.000000 1.000000 1.000000
2382.677002 0.000000 2454.914063 -0.000000 -0.000000 -0.000000 1.000000 1.000000 1.000000 1.000000
2208.463135 0.000000 2264.137939 -0.000000 -0.000000 -0.000000 1.000000 1.000000 1.000000 1.000000
2254.888184 0.000000 2248.009033 -0.000000 -0.000000 -0.000000 1.000000 1.000000 1.000000 1.000000
2288.461914 0.000000 2208.321533 -0.000000 -0.000000 -0.000000 1.000000 1.000000 1.000000 1.000000
2350.072266 0.000000 2115.345459 -0.000000 -0.000000 -0.000000 1.000000 1.000000 1.000000 1.000000
1798.773560 0.000000 2399.880371 -0.000000 -0.000000 -0.000000 1.000000 1.000000 1.000000 1.000000
1857.640869 0.000000 2308.316162 -0.000000 -0.000000 -0.000000 1.000000 1.000000 1.000000 1.000000
1955.126343 0.000000 2259.774902 -0.000000 -0.000000 -0.000000 1.000000 1.000000 1.000000 1.000000
1705.267578 0.000000 2981.151611 -0.000000 -0.000000 -0.000000 1.000000 1.000000 1.000000 1.000000
1719.457031 0.000000 2886.966064 -0.000000 -0.000000 -0.000000 1.000000 1.000000 1.000000 1.000000
1445.971802 0.000000 2709.833984 -0.000000 -0.000000 -0.000000 1.000000 1.000000 1.000000 1.000000
1403.539917 0.000000 2611.907471 -0.000000 -0.000000 -0.000000 1.000000 1.000000 1.000000 1.000000
1393.958130 0.000000 2652.297119 -0.000000 -0.000000 -0.000000 1.000000 1.000000 1.000000 1.000000
1460.285889 0.000000 2645.155273 -0.000000 -0.000000 -0.000000 1.000000 1.000000 1.000000 1.000000
1504.137207 0.000000 2687.073242 -0.000000 -0.000000 -0.000000 1.000000 1.000000 1.000000 1.000000
1550.723145 0.000000 2642.998291 -0.000000 -0.000000 -0.000000 1.000000 1.000000 1.000000 1.000000
1592.671265 0.000000 2682.770508 -0.000000 -0.000000 -0.000000 1.000000 1.000000 1.000000 1.000000
1615.309692 0.000000 2646.431396 -0.000000 -0.000000 -0.000000 1.000000 1.000000 1.000000 1.000000
1651.359497 0.000000 2608.444336 -0.000000 -0.000000 -0.000000 1.000000 1.000000 1.000000 1.000000
1593.112183 0.000000 2525.574463 -0.000000 -0.000000 -0.000000 1.000000 1.000000 1.000000 1.000000
1711.247192 0.000000 2387.543701 -0.000000 -0.000000 -0.000000 1.000000 1.000000 1.000000 1.000000
1697.886597 0.000000 2476.296631 -0.000000 -0.000000 -0.000000 1.000000 1.000000 1.000000 1.000000
1686.331665 0.000000 2433.621338 -0.000000 -0.000000 -0.000000 1.000000 1.000000 1.000000 1.000000
"}
