game_object_locator={
	name="wonder_giza"
	clamp_to_water_level=no
	render_under_water=no
	generated_content=no
	layer=""
	instances={
		{
			id=2133
			position={ 2102.000000 0.000000 1854.000000 }
			rotation={ -0.000000 -0.000000 -0.000000 1.000000 }
			scale={ 1.000000 1.000000 1.000000 }
		}
	}
}
